%YAML 1.1
%TAG !u! tag:unity3d.com,2011:
--- !u!1 &3670750966307921784
GameObject:
  m_ObjectHideFlags: 0
  m_CorrespondingSourceObject: {fileID: 0}
  m_PrefabInstance: {fileID: 0}
  m_PrefabAsset: {fileID: 0}
  serializedVersion: 6
  m_Component:
  - component: {fileID: 7511886419463694449}
  - component: {fileID: 2519850344704269041}
  m_Layer: 31
  m_Name: Terrain
  m_TagString: Untagged
  m_Icon: {fileID: 0}
  m_NavMeshLayer: 0
  m_StaticEditorFlags: 0
  m_IsActive: 1
--- !u!4 &7511886419463694449
Transform:
  m_ObjectHideFlags: 0
  m_CorrespondingSourceObject: {fileID: 0}
  m_PrefabInstance: {fileID: 0}
  m_PrefabAsset: {fileID: 0}
  m_GameObject: {fileID: 3670750966307921784}
  m_LocalRotation: {x: 0, y: 0, z: 0, w: 1}
  m_LocalPosition: {x: 0, y: 0, z: 0}
  m_LocalScale: {x: 1, y: 1, z: 1}
  m_Children:
  - {fileID: 8144189905165474962}
  m_Father: {fileID: 0}
  m_RootOrder: 0
  m_LocalEulerAnglesHint: {x: 0, y: 0, z: 0}
--- !u!156049354 &2519850344704269041
Grid:
  m_ObjectHideFlags: 0
  m_CorrespondingSourceObject: {fileID: 0}
  m_PrefabInstance: {fileID: 0}
  m_PrefabAsset: {fileID: 0}
  m_GameObject: {fileID: 3670750966307921784}
  m_Enabled: 1
  m_CellSize: {x: 1, y: 1, z: 0}
  m_CellGap: {x: 0, y: 0, z: 0}
  m_CellLayout: 0
  m_CellSwizzle: 0
--- !u!1 &4589858324906340659
GameObject:
  m_ObjectHideFlags: 0
  m_CorrespondingSourceObject: {fileID: 0}
  m_PrefabInstance: {fileID: 0}
  m_PrefabAsset: {fileID: 0}
  serializedVersion: 6
  m_Component:
  - component: {fileID: 8144189905165474962}
  - component: {fileID: 339237286930493391}
  - component: {fileID: 6910353377038643}
  m_Layer: 0
  m_Name: Layer1
  m_TagString: Untagged
  m_Icon: {fileID: 0}
  m_NavMeshLayer: 0
  m_StaticEditorFlags: 0
  m_IsActive: 1
--- !u!4 &8144189905165474962
Transform:
  m_ObjectHideFlags: 0
  m_CorrespondingSourceObject: {fileID: 0}
  m_PrefabInstance: {fileID: 0}
  m_PrefabAsset: {fileID: 0}
  m_GameObject: {fileID: 4589858324906340659}
  m_LocalRotation: {x: -0, y: -0, z: -0, w: 1}
  m_LocalPosition: {x: 0, y: 0, z: 0}
  m_LocalScale: {x: 1, y: 1, z: 1}
  m_Children: []
  m_Father: {fileID: 7511886419463694449}
  m_RootOrder: 0
  m_LocalEulerAnglesHint: {x: 0, y: 0, z: 0}
--- !u!1839735485 &339237286930493391
Tilemap:
  m_ObjectHideFlags: 0
  m_CorrespondingSourceObject: {fileID: 0}
  m_PrefabInstance: {fileID: 0}
  m_PrefabAsset: {fileID: 0}
  m_GameObject: {fileID: 4589858324906340659}
  m_Enabled: 1
  m_Tiles:
  - first: {x: -1, y: -8, z: 0}
    second:
      serializedVersion: 2
      m_TileIndex: 132
      m_TileSpriteIndex: 132
      m_TileMatrixIndex: 0
      m_TileColorIndex: 0
      m_TileObjectToInstantiateIndex: 65535
      dummyAlignment: 0
      m_AllTileFlags: 1073741825
  - first: {x: 0, y: -8, z: 0}
    second:
      serializedVersion: 2
      m_TileIndex: 133
      m_TileSpriteIndex: 133
      m_TileMatrixIndex: 0
      m_TileColorIndex: 0
      m_TileObjectToInstantiateIndex: 65535
      dummyAlignment: 0
      m_AllTileFlags: 1073741825
  - first: {x: 1, y: -8, z: 0}
    second:
      serializedVersion: 2
      m_TileIndex: 134
      m_TileSpriteIndex: 134
      m_TileMatrixIndex: 0
      m_TileColorIndex: 0
      m_TileObjectToInstantiateIndex: 65535
      dummyAlignment: 0
      m_AllTileFlags: 1073741825
  - first: {x: 5, y: -8, z: 0}
    second:
      serializedVersion: 2
      m_TileIndex: 135
      m_TileSpriteIndex: 135
      m_TileMatrixIndex: 0
      m_TileColorIndex: 0
      m_TileObjectToInstantiateIndex: 65535
      dummyAlignment: 0
      m_AllTileFlags: 1073741825
  - first: {x: 6, y: -8, z: 0}
    second:
      serializedVersion: 2
      m_TileIndex: 136
      m_TileSpriteIndex: 136
      m_TileMatrixIndex: 0
      m_TileColorIndex: 0
      m_TileObjectToInstantiateIndex: 65535
      dummyAlignment: 0
      m_AllTileFlags: 1073741825
  - first: {x: 7, y: -8, z: 0}
    second:
      serializedVersion: 2
      m_TileIndex: 137
      m_TileSpriteIndex: 137
      m_TileMatrixIndex: 0
      m_TileColorIndex: 0
      m_TileObjectToInstantiateIndex: 65535
      dummyAlignment: 0
      m_AllTileFlags: 1073741825
  - first: {x: 12, y: -8, z: 0}
    second:
      serializedVersion: 2
      m_TileIndex: 138
      m_TileSpriteIndex: 138
      m_TileMatrixIndex: 0
      m_TileColorIndex: 0
      m_TileObjectToInstantiateIndex: 65535
      dummyAlignment: 0
      m_AllTileFlags: 1073741825
  - first: {x: 13, y: -8, z: 0}
    second:
      serializedVersion: 2
      m_TileIndex: 139
      m_TileSpriteIndex: 139
      m_TileMatrixIndex: 0
      m_TileColorIndex: 0
      m_TileObjectToInstantiateIndex: 65535
      dummyAlignment: 0
      m_AllTileFlags: 1073741825
  - first: {x: 14, y: -8, z: 0}
    second:
      serializedVersion: 2
      m_TileIndex: 140
      m_TileSpriteIndex: 140
      m_TileMatrixIndex: 0
      m_TileColorIndex: 0
      m_TileObjectToInstantiateIndex: 65535
      dummyAlignment: 0
      m_AllTileFlags: 1073741825
  - first: {x: 17, y: -8, z: 0}
    second:
      serializedVersion: 2
      m_TileIndex: 141
      m_TileSpriteIndex: 141
      m_TileMatrixIndex: 0
      m_TileColorIndex: 0
      m_TileObjectToInstantiateIndex: 65535
      dummyAlignment: 0
      m_AllTileFlags: 1073741825
  - first: {x: 18, y: -8, z: 0}
    second:
      serializedVersion: 2
      m_TileIndex: 142
      m_TileSpriteIndex: 142
      m_TileMatrixIndex: 0
      m_TileColorIndex: 0
      m_TileObjectToInstantiateIndex: 65535
      dummyAlignment: 0
      m_AllTileFlags: 1073741825
  - first: {x: 19, y: -8, z: 0}
    second:
      serializedVersion: 2
      m_TileIndex: 143
      m_TileSpriteIndex: 143
      m_TileMatrixIndex: 0
      m_TileColorIndex: 0
      m_TileObjectToInstantiateIndex: 65535
      dummyAlignment: 0
      m_AllTileFlags: 1073741825
  - first: {x: -1, y: -7, z: 0}
    second:
      serializedVersion: 2
      m_TileIndex: 114
      m_TileSpriteIndex: 114
      m_TileMatrixIndex: 0
      m_TileColorIndex: 0
      m_TileObjectToInstantiateIndex: 65535
      dummyAlignment: 0
      m_AllTileFlags: 1073741825
  - first: {x: 0, y: -7, z: 0}
    second:
      serializedVersion: 2
      m_TileIndex: 115
      m_TileSpriteIndex: 115
      m_TileMatrixIndex: 0
      m_TileColorIndex: 0
      m_TileObjectToInstantiateIndex: 65535
      dummyAlignment: 0
      m_AllTileFlags: 1073741825
  - first: {x: 1, y: -7, z: 0}
    second:
      serializedVersion: 2
      m_TileIndex: 116
      m_TileSpriteIndex: 116
      m_TileMatrixIndex: 0
      m_TileColorIndex: 0
      m_TileObjectToInstantiateIndex: 65535
      dummyAlignment: 0
      m_AllTileFlags: 1073741825
  - first: {x: 2, y: -7, z: 0}
    second:
      serializedVersion: 2
      m_TileIndex: 117
      m_TileSpriteIndex: 117
      m_TileMatrixIndex: 0
      m_TileColorIndex: 0
      m_TileObjectToInstantiateIndex: 65535
      dummyAlignment: 0
      m_AllTileFlags: 1073741825
  - first: {x: 3, y: -7, z: 0}
    second:
      serializedVersion: 2
      m_TileIndex: 118
      m_TileSpriteIndex: 118
      m_TileMatrixIndex: 0
      m_TileColorIndex: 0
      m_TileObjectToInstantiateIndex: 65535
      dummyAlignment: 0
      m_AllTileFlags: 1073741825
  - first: {x: 5, y: -7, z: 0}
    second:
      serializedVersion: 2
      m_TileIndex: 119
      m_TileSpriteIndex: 119
      m_TileMatrixIndex: 0
      m_TileColorIndex: 0
      m_TileObjectToInstantiateIndex: 65535
      dummyAlignment: 0
      m_AllTileFlags: 1073741825
  - first: {x: 6, y: -7, z: 0}
    second:
      serializedVersion: 2
      m_TileIndex: 120
      m_TileSpriteIndex: 120
      m_TileMatrixIndex: 0
      m_TileColorIndex: 0
      m_TileObjectToInstantiateIndex: 65535
      dummyAlignment: 0
      m_AllTileFlags: 1073741825
  - first: {x: 7, y: -7, z: 0}
    second:
      serializedVersion: 2
      m_TileIndex: 121
      m_TileSpriteIndex: 121
      m_TileMatrixIndex: 0
      m_TileColorIndex: 0
      m_TileObjectToInstantiateIndex: 65535
      dummyAlignment: 0
      m_AllTileFlags: 1073741825
  - first: {x: 8, y: -7, z: 0}
    second:
      serializedVersion: 2
      m_TileIndex: 122
      m_TileSpriteIndex: 122
      m_TileMatrixIndex: 0
      m_TileColorIndex: 0
      m_TileObjectToInstantiateIndex: 65535
      dummyAlignment: 0
      m_AllTileFlags: 1073741825
  - first: {x: 9, y: -7, z: 0}
    second:
      serializedVersion: 2
      m_TileIndex: 123
      m_TileSpriteIndex: 123
      m_TileMatrixIndex: 0
      m_TileColorIndex: 0
      m_TileObjectToInstantiateIndex: 65535
      dummyAlignment: 0
      m_AllTileFlags: 1073741825
  - first: {x: 11, y: -7, z: 0}
    second:
      serializedVersion: 2
      m_TileIndex: 124
      m_TileSpriteIndex: 124
      m_TileMatrixIndex: 0
      m_TileColorIndex: 0
      m_TileObjectToInstantiateIndex: 65535
      dummyAlignment: 0
      m_AllTileFlags: 1073741825
  - first: {x: 12, y: -7, z: 0}
    second:
      serializedVersion: 2
      m_TileIndex: 125
      m_TileSpriteIndex: 125
      m_TileMatrixIndex: 0
      m_TileColorIndex: 0
      m_TileObjectToInstantiateIndex: 65535
      dummyAlignment: 0
      m_AllTileFlags: 1073741825
  - first: {x: 13, y: -7, z: 0}
    second:
      serializedVersion: 2
      m_TileIndex: 126
      m_TileSpriteIndex: 126
      m_TileMatrixIndex: 0
      m_TileColorIndex: 0
      m_TileObjectToInstantiateIndex: 65535
      dummyAlignment: 0
      m_AllTileFlags: 1073741825
  - first: {x: 14, y: -7, z: 0}
    second:
      serializedVersion: 2
      m_TileIndex: 127
      m_TileSpriteIndex: 127
      m_TileMatrixIndex: 0
      m_TileColorIndex: 0
      m_TileObjectToInstantiateIndex: 65535
      dummyAlignment: 0
      m_AllTileFlags: 1073741825
  - first: {x: 16, y: -7, z: 0}
    second:
      serializedVersion: 2
      m_TileIndex: 128
      m_TileSpriteIndex: 128
      m_TileMatrixIndex: 0
      m_TileColorIndex: 0
      m_TileObjectToInstantiateIndex: 65535
      dummyAlignment: 0
      m_AllTileFlags: 1073741825
  - first: {x: 17, y: -7, z: 0}
    second:
      serializedVersion: 2
      m_TileIndex: 129
      m_TileSpriteIndex: 129
      m_TileMatrixIndex: 0
      m_TileColorIndex: 0
      m_TileObjectToInstantiateIndex: 65535
      dummyAlignment: 0
      m_AllTileFlags: 1073741825
  - first: {x: 18, y: -7, z: 0}
    second:
      serializedVersion: 2
      m_TileIndex: 130
      m_TileSpriteIndex: 130
      m_TileMatrixIndex: 0
      m_TileColorIndex: 0
      m_TileObjectToInstantiateIndex: 65535
      dummyAlignment: 0
      m_AllTileFlags: 1073741825
  - first: {x: 19, y: -7, z: 0}
    second:
      serializedVersion: 2
      m_TileIndex: 131
      m_TileSpriteIndex: 131
      m_TileMatrixIndex: 0
      m_TileColorIndex: 0
      m_TileObjectToInstantiateIndex: 65535
      dummyAlignment: 0
      m_AllTileFlags: 1073741825
  - first: {x: -1, y: -6, z: 0}
    second:
      serializedVersion: 2
      m_TileIndex: 96
      m_TileSpriteIndex: 96
      m_TileMatrixIndex: 0
      m_TileColorIndex: 0
      m_TileObjectToInstantiateIndex: 65535
      dummyAlignment: 0
      m_AllTileFlags: 1073741825
  - first: {x: 0, y: -6, z: 0}
    second:
      serializedVersion: 2
      m_TileIndex: 97
      m_TileSpriteIndex: 97
      m_TileMatrixIndex: 0
      m_TileColorIndex: 0
      m_TileObjectToInstantiateIndex: 65535
      dummyAlignment: 0
      m_AllTileFlags: 1073741825
  - first: {x: 1, y: -6, z: 0}
    second:
      serializedVersion: 2
      m_TileIndex: 98
      m_TileSpriteIndex: 98
      m_TileMatrixIndex: 0
      m_TileColorIndex: 0
      m_TileObjectToInstantiateIndex: 65535
      dummyAlignment: 0
      m_AllTileFlags: 1073741825
  - first: {x: 2, y: -6, z: 0}
    second:
      serializedVersion: 2
      m_TileIndex: 99
      m_TileSpriteIndex: 99
      m_TileMatrixIndex: 0
      m_TileColorIndex: 0
      m_TileObjectToInstantiateIndex: 65535
      dummyAlignment: 0
      m_AllTileFlags: 1073741825
  - first: {x: 3, y: -6, z: 0}
    second:
      serializedVersion: 2
      m_TileIndex: 100
      m_TileSpriteIndex: 100
      m_TileMatrixIndex: 0
      m_TileColorIndex: 0
      m_TileObjectToInstantiateIndex: 65535
      dummyAlignment: 0
      m_AllTileFlags: 1073741825
  - first: {x: 5, y: -6, z: 0}
    second:
      serializedVersion: 2
      m_TileIndex: 101
      m_TileSpriteIndex: 101
      m_TileMatrixIndex: 0
      m_TileColorIndex: 0
      m_TileObjectToInstantiateIndex: 65535
      dummyAlignment: 0
      m_AllTileFlags: 1073741825
  - first: {x: 6, y: -6, z: 0}
    second:
      serializedVersion: 2
      m_TileIndex: 102
      m_TileSpriteIndex: 102
      m_TileMatrixIndex: 0
      m_TileColorIndex: 0
      m_TileObjectToInstantiateIndex: 65535
      dummyAlignment: 0
      m_AllTileFlags: 1073741825
  - first: {x: 7, y: -6, z: 0}
    second:
      serializedVersion: 2
      m_TileIndex: 103
      m_TileSpriteIndex: 103
      m_TileMatrixIndex: 0
      m_TileColorIndex: 0
      m_TileObjectToInstantiateIndex: 65535
      dummyAlignment: 0
      m_AllTileFlags: 1073741825
  - first: {x: 8, y: -6, z: 0}
    second:
      serializedVersion: 2
      m_TileIndex: 104
      m_TileSpriteIndex: 104
      m_TileMatrixIndex: 0
      m_TileColorIndex: 0
      m_TileObjectToInstantiateIndex: 65535
      dummyAlignment: 0
      m_AllTileFlags: 1073741825
  - first: {x: 9, y: -6, z: 0}
    second:
      serializedVersion: 2
      m_TileIndex: 105
      m_TileSpriteIndex: 105
      m_TileMatrixIndex: 0
      m_TileColorIndex: 0
      m_TileObjectToInstantiateIndex: 65535
      dummyAlignment: 0
      m_AllTileFlags: 1073741825
  - first: {x: 11, y: -6, z: 0}
    second:
      serializedVersion: 2
      m_TileIndex: 106
      m_TileSpriteIndex: 106
      m_TileMatrixIndex: 0
      m_TileColorIndex: 0
      m_TileObjectToInstantiateIndex: 65535
      dummyAlignment: 0
      m_AllTileFlags: 1073741825
  - first: {x: 12, y: -6, z: 0}
    second:
      serializedVersion: 2
      m_TileIndex: 107
      m_TileSpriteIndex: 107
      m_TileMatrixIndex: 0
      m_TileColorIndex: 0
      m_TileObjectToInstantiateIndex: 65535
      dummyAlignment: 0
      m_AllTileFlags: 1073741825
  - first: {x: 13, y: -6, z: 0}
    second:
      serializedVersion: 2
      m_TileIndex: 108
      m_TileSpriteIndex: 108
      m_TileMatrixIndex: 0
      m_TileColorIndex: 0
      m_TileObjectToInstantiateIndex: 65535
      dummyAlignment: 0
      m_AllTileFlags: 1073741825
  - first: {x: 14, y: -6, z: 0}
    second:
      serializedVersion: 2
      m_TileIndex: 109
      m_TileSpriteIndex: 109
      m_TileMatrixIndex: 0
      m_TileColorIndex: 0
      m_TileObjectToInstantiateIndex: 65535
      dummyAlignment: 0
      m_AllTileFlags: 1073741825
  - first: {x: 16, y: -6, z: 0}
    second:
      serializedVersion: 2
      m_TileIndex: 110
      m_TileSpriteIndex: 110
      m_TileMatrixIndex: 0
      m_TileColorIndex: 0
      m_TileObjectToInstantiateIndex: 65535
      dummyAlignment: 0
      m_AllTileFlags: 1073741825
  - first: {x: 17, y: -6, z: 0}
    second:
      serializedVersion: 2
      m_TileIndex: 111
      m_TileSpriteIndex: 111
      m_TileMatrixIndex: 0
      m_TileColorIndex: 0
      m_TileObjectToInstantiateIndex: 65535
      dummyAlignment: 0
      m_AllTileFlags: 1073741825
  - first: {x: 18, y: -6, z: 0}
    second:
      serializedVersion: 2
      m_TileIndex: 112
      m_TileSpriteIndex: 112
      m_TileMatrixIndex: 0
      m_TileColorIndex: 0
      m_TileObjectToInstantiateIndex: 65535
      dummyAlignment: 0
      m_AllTileFlags: 1073741825
  - first: {x: 19, y: -6, z: 0}
    second:
      serializedVersion: 2
      m_TileIndex: 113
      m_TileSpriteIndex: 113
      m_TileMatrixIndex: 0
      m_TileColorIndex: 0
      m_TileObjectToInstantiateIndex: 65535
      dummyAlignment: 0
      m_AllTileFlags: 1073741825
  - first: {x: -1, y: -4, z: 0}
    second:
      serializedVersion: 2
      m_TileIndex: 84
      m_TileSpriteIndex: 84
      m_TileMatrixIndex: 0
      m_TileColorIndex: 0
      m_TileObjectToInstantiateIndex: 65535
      dummyAlignment: 0
      m_AllTileFlags: 1073741825
  - first: {x: 0, y: -4, z: 0}
    second:
      serializedVersion: 2
      m_TileIndex: 85
      m_TileSpriteIndex: 85
      m_TileMatrixIndex: 0
      m_TileColorIndex: 0
      m_TileObjectToInstantiateIndex: 65535
      dummyAlignment: 0
      m_AllTileFlags: 1073741825
  - first: {x: 1, y: -4, z: 0}
    second:
      serializedVersion: 2
      m_TileIndex: 86
      m_TileSpriteIndex: 86
      m_TileMatrixIndex: 0
      m_TileColorIndex: 0
      m_TileObjectToInstantiateIndex: 65535
      dummyAlignment: 0
      m_AllTileFlags: 1073741825
  - first: {x: 5, y: -4, z: 0}
    second:
      serializedVersion: 2
      m_TileIndex: 87
      m_TileSpriteIndex: 87
      m_TileMatrixIndex: 0
      m_TileColorIndex: 0
      m_TileObjectToInstantiateIndex: 65535
      dummyAlignment: 0
      m_AllTileFlags: 1073741825
  - first: {x: 6, y: -4, z: 0}
    second:
      serializedVersion: 2
      m_TileIndex: 88
      m_TileSpriteIndex: 88
      m_TileMatrixIndex: 0
      m_TileColorIndex: 0
      m_TileObjectToInstantiateIndex: 65535
      dummyAlignment: 0
      m_AllTileFlags: 1073741825
  - first: {x: 7, y: -4, z: 0}
    second:
      serializedVersion: 2
      m_TileIndex: 89
      m_TileSpriteIndex: 89
      m_TileMatrixIndex: 0
      m_TileColorIndex: 0
      m_TileObjectToInstantiateIndex: 65535
      dummyAlignment: 0
      m_AllTileFlags: 1073741825
  - first: {x: 12, y: -4, z: 0}
    second:
      serializedVersion: 2
      m_TileIndex: 90
      m_TileSpriteIndex: 90
      m_TileMatrixIndex: 0
      m_TileColorIndex: 0
      m_TileObjectToInstantiateIndex: 65535
      dummyAlignment: 0
      m_AllTileFlags: 1073741825
  - first: {x: 13, y: -4, z: 0}
    second:
      serializedVersion: 2
      m_TileIndex: 91
      m_TileSpriteIndex: 91
      m_TileMatrixIndex: 0
      m_TileColorIndex: 0
      m_TileObjectToInstantiateIndex: 65535
      dummyAlignment: 0
      m_AllTileFlags: 1073741825
  - first: {x: 14, y: -4, z: 0}
    second:
      serializedVersion: 2
      m_TileIndex: 92
      m_TileSpriteIndex: 92
      m_TileMatrixIndex: 0
      m_TileColorIndex: 0
      m_TileObjectToInstantiateIndex: 65535
      dummyAlignment: 0
      m_AllTileFlags: 1073741825
  - first: {x: 16, y: -4, z: 0}
    second:
      serializedVersion: 2
      m_TileIndex: 93
      m_TileSpriteIndex: 93
      m_TileMatrixIndex: 0
      m_TileColorIndex: 0
      m_TileObjectToInstantiateIndex: 65535
      dummyAlignment: 0
      m_AllTileFlags: 1073741825
  - first: {x: 17, y: -4, z: 0}
    second:
      serializedVersion: 2
      m_TileIndex: 94
      m_TileSpriteIndex: 94
      m_TileMatrixIndex: 0
      m_TileColorIndex: 0
      m_TileObjectToInstantiateIndex: 65535
      dummyAlignment: 0
      m_AllTileFlags: 1073741825
  - first: {x: 18, y: -4, z: 0}
    second:
      serializedVersion: 2
      m_TileIndex: 95
      m_TileSpriteIndex: 95
      m_TileMatrixIndex: 0
      m_TileColorIndex: 0
      m_TileObjectToInstantiateIndex: 65535
      dummyAlignment: 0
      m_AllTileFlags: 1073741825
  - first: {x: -1, y: -3, z: 0}
    second:
      serializedVersion: 2
      m_TileIndex: 65
      m_TileSpriteIndex: 65
      m_TileMatrixIndex: 0
      m_TileColorIndex: 0
      m_TileObjectToInstantiateIndex: 65535
      dummyAlignment: 0
      m_AllTileFlags: 1073741825
  - first: {x: 0, y: -3, z: 0}
    second:
      serializedVersion: 2
      m_TileIndex: 66
      m_TileSpriteIndex: 66
      m_TileMatrixIndex: 0
      m_TileColorIndex: 0
      m_TileObjectToInstantiateIndex: 65535
      dummyAlignment: 0
      m_AllTileFlags: 1073741825
  - first: {x: 1, y: -3, z: 0}
    second:
      serializedVersion: 2
      m_TileIndex: 67
      m_TileSpriteIndex: 67
      m_TileMatrixIndex: 0
      m_TileColorIndex: 0
      m_TileObjectToInstantiateIndex: 65535
      dummyAlignment: 0
      m_AllTileFlags: 1073741825
  - first: {x: 2, y: -3, z: 0}
    second:
      serializedVersion: 2
      m_TileIndex: 68
      m_TileSpriteIndex: 68
      m_TileMatrixIndex: 0
      m_TileColorIndex: 0
      m_TileObjectToInstantiateIndex: 65535
      dummyAlignment: 0
      m_AllTileFlags: 1073741825
  - first: {x: 3, y: -3, z: 0}
    second:
      serializedVersion: 2
      m_TileIndex: 69
      m_TileSpriteIndex: 69
      m_TileMatrixIndex: 0
      m_TileColorIndex: 0
      m_TileObjectToInstantiateIndex: 65535
      dummyAlignment: 0
      m_AllTileFlags: 1073741825
  - first: {x: 5, y: -3, z: 0}
    second:
      serializedVersion: 2
      m_TileIndex: 70
      m_TileSpriteIndex: 70
      m_TileMatrixIndex: 0
      m_TileColorIndex: 0
      m_TileObjectToInstantiateIndex: 65535
      dummyAlignment: 0
      m_AllTileFlags: 1073741825
  - first: {x: 6, y: -3, z: 0}
    second:
      serializedVersion: 2
      m_TileIndex: 71
      m_TileSpriteIndex: 71
      m_TileMatrixIndex: 0
      m_TileColorIndex: 0
      m_TileObjectToInstantiateIndex: 65535
      dummyAlignment: 0
      m_AllTileFlags: 1073741825
  - first: {x: 7, y: -3, z: 0}
    second:
      serializedVersion: 2
      m_TileIndex: 72
      m_TileSpriteIndex: 72
      m_TileMatrixIndex: 0
      m_TileColorIndex: 0
      m_TileObjectToInstantiateIndex: 65535
      dummyAlignment: 0
      m_AllTileFlags: 1073741825
  - first: {x: 8, y: -3, z: 0}
    second:
      serializedVersion: 2
      m_TileIndex: 73
      m_TileSpriteIndex: 73
      m_TileMatrixIndex: 0
      m_TileColorIndex: 0
      m_TileObjectToInstantiateIndex: 65535
      dummyAlignment: 0
      m_AllTileFlags: 1073741825
  - first: {x: 9, y: -3, z: 0}
    second:
      serializedVersion: 2
      m_TileIndex: 74
      m_TileSpriteIndex: 74
      m_TileMatrixIndex: 0
      m_TileColorIndex: 0
      m_TileObjectToInstantiateIndex: 65535
      dummyAlignment: 0
      m_AllTileFlags: 1073741825
  - first: {x: 11, y: -3, z: 0}
    second:
      serializedVersion: 2
      m_TileIndex: 75
      m_TileSpriteIndex: 75
      m_TileMatrixIndex: 0
      m_TileColorIndex: 0
      m_TileObjectToInstantiateIndex: 65535
      dummyAlignment: 0
      m_AllTileFlags: 1073741825
  - first: {x: 12, y: -3, z: 0}
    second:
      serializedVersion: 2
      m_TileIndex: 76
      m_TileSpriteIndex: 76
      m_TileMatrixIndex: 0
      m_TileColorIndex: 0
      m_TileObjectToInstantiateIndex: 65535
      dummyAlignment: 0
      m_AllTileFlags: 1073741825
  - first: {x: 13, y: -3, z: 0}
    second:
      serializedVersion: 2
      m_TileIndex: 77
      m_TileSpriteIndex: 77
      m_TileMatrixIndex: 0
      m_TileColorIndex: 0
      m_TileObjectToInstantiateIndex: 65535
      dummyAlignment: 0
      m_AllTileFlags: 1073741825
  - first: {x: 14, y: -3, z: 0}
    second:
      serializedVersion: 2
      m_TileIndex: 78
      m_TileSpriteIndex: 78
      m_TileMatrixIndex: 0
      m_TileColorIndex: 0
      m_TileObjectToInstantiateIndex: 65535
      dummyAlignment: 0
      m_AllTileFlags: 1073741825
  - first: {x: 16, y: -3, z: 0}
    second:
      serializedVersion: 2
      m_TileIndex: 79
      m_TileSpriteIndex: 79
      m_TileMatrixIndex: 0
      m_TileColorIndex: 0
      m_TileObjectToInstantiateIndex: 65535
      dummyAlignment: 0
      m_AllTileFlags: 1073741825
  - first: {x: 17, y: -3, z: 0}
    second:
      serializedVersion: 2
      m_TileIndex: 80
      m_TileSpriteIndex: 80
      m_TileMatrixIndex: 0
      m_TileColorIndex: 0
      m_TileObjectToInstantiateIndex: 65535
      dummyAlignment: 0
      m_AllTileFlags: 1073741825
  - first: {x: 18, y: -3, z: 0}
    second:
      serializedVersion: 2
      m_TileIndex: 81
      m_TileSpriteIndex: 81
      m_TileMatrixIndex: 0
      m_TileColorIndex: 0
      m_TileObjectToInstantiateIndex: 65535
      dummyAlignment: 0
      m_AllTileFlags: 1073741825
  - first: {x: 19, y: -3, z: 0}
    second:
      serializedVersion: 2
      m_TileIndex: 82
      m_TileSpriteIndex: 82
      m_TileMatrixIndex: 0
      m_TileColorIndex: 0
      m_TileObjectToInstantiateIndex: 65535
      dummyAlignment: 0
      m_AllTileFlags: 1073741825
  - first: {x: 20, y: -3, z: 0}
    second:
      serializedVersion: 2
      m_TileIndex: 83
      m_TileSpriteIndex: 83
      m_TileMatrixIndex: 0
      m_TileColorIndex: 0
      m_TileObjectToInstantiateIndex: 65535
      dummyAlignment: 0
      m_AllTileFlags: 1073741825
  - first: {x: -1, y: -2, z: 0}
    second:
      serializedVersion: 2
      m_TileIndex: 46
      m_TileSpriteIndex: 46
      m_TileMatrixIndex: 0
      m_TileColorIndex: 0
      m_TileObjectToInstantiateIndex: 65535
      dummyAlignment: 0
      m_AllTileFlags: 1073741825
  - first: {x: 0, y: -2, z: 0}
    second:
      serializedVersion: 2
      m_TileIndex: 47
      m_TileSpriteIndex: 47
      m_TileMatrixIndex: 0
      m_TileColorIndex: 0
      m_TileObjectToInstantiateIndex: 65535
      dummyAlignment: 0
      m_AllTileFlags: 1073741825
  - first: {x: 1, y: -2, z: 0}
    second:
      serializedVersion: 2
      m_TileIndex: 48
      m_TileSpriteIndex: 48
      m_TileMatrixIndex: 0
      m_TileColorIndex: 0
      m_TileObjectToInstantiateIndex: 65535
      dummyAlignment: 0
      m_AllTileFlags: 1073741825
  - first: {x: 2, y: -2, z: 0}
    second:
      serializedVersion: 2
      m_TileIndex: 49
      m_TileSpriteIndex: 49
      m_TileMatrixIndex: 0
      m_TileColorIndex: 0
      m_TileObjectToInstantiateIndex: 65535
      dummyAlignment: 0
      m_AllTileFlags: 1073741825
  - first: {x: 3, y: -2, z: 0}
    second:
      serializedVersion: 2
      m_TileIndex: 50
      m_TileSpriteIndex: 50
      m_TileMatrixIndex: 0
      m_TileColorIndex: 0
      m_TileObjectToInstantiateIndex: 65535
      dummyAlignment: 0
      m_AllTileFlags: 1073741825
  - first: {x: 5, y: -2, z: 0}
    second:
      serializedVersion: 2
      m_TileIndex: 51
      m_TileSpriteIndex: 51
      m_TileMatrixIndex: 0
      m_TileColorIndex: 0
      m_TileObjectToInstantiateIndex: 65535
      dummyAlignment: 0
      m_AllTileFlags: 1073741825
  - first: {x: 6, y: -2, z: 0}
    second:
      serializedVersion: 2
      m_TileIndex: 52
      m_TileSpriteIndex: 52
      m_TileMatrixIndex: 0
      m_TileColorIndex: 0
      m_TileObjectToInstantiateIndex: 65535
      dummyAlignment: 0
      m_AllTileFlags: 1073741825
  - first: {x: 7, y: -2, z: 0}
    second:
      serializedVersion: 2
      m_TileIndex: 53
      m_TileSpriteIndex: 53
      m_TileMatrixIndex: 0
      m_TileColorIndex: 0
      m_TileObjectToInstantiateIndex: 65535
      dummyAlignment: 0
      m_AllTileFlags: 1073741825
  - first: {x: 8, y: -2, z: 0}
    second:
      serializedVersion: 2
      m_TileIndex: 54
      m_TileSpriteIndex: 54
      m_TileMatrixIndex: 0
      m_TileColorIndex: 0
      m_TileObjectToInstantiateIndex: 65535
      dummyAlignment: 0
      m_AllTileFlags: 1073741825
  - first: {x: 9, y: -2, z: 0}
    second:
      serializedVersion: 2
      m_TileIndex: 55
      m_TileSpriteIndex: 55
      m_TileMatrixIndex: 0
      m_TileColorIndex: 0
      m_TileObjectToInstantiateIndex: 65535
      dummyAlignment: 0
      m_AllTileFlags: 1073741825
  - first: {x: 11, y: -2, z: 0}
    second:
      serializedVersion: 2
      m_TileIndex: 56
      m_TileSpriteIndex: 56
      m_TileMatrixIndex: 0
      m_TileColorIndex: 0
      m_TileObjectToInstantiateIndex: 65535
      dummyAlignment: 0
      m_AllTileFlags: 1073741825
  - first: {x: 12, y: -2, z: 0}
    second:
      serializedVersion: 2
      m_TileIndex: 57
      m_TileSpriteIndex: 57
      m_TileMatrixIndex: 0
      m_TileColorIndex: 0
      m_TileObjectToInstantiateIndex: 65535
      dummyAlignment: 0
      m_AllTileFlags: 1073741825
  - first: {x: 13, y: -2, z: 0}
    second:
      serializedVersion: 2
      m_TileIndex: 58
      m_TileSpriteIndex: 58
      m_TileMatrixIndex: 0
      m_TileColorIndex: 0
      m_TileObjectToInstantiateIndex: 65535
      dummyAlignment: 0
      m_AllTileFlags: 1073741825
  - first: {x: 14, y: -2, z: 0}
    second:
      serializedVersion: 2
      m_TileIndex: 59
      m_TileSpriteIndex: 59
      m_TileMatrixIndex: 0
      m_TileColorIndex: 0
      m_TileObjectToInstantiateIndex: 65535
      dummyAlignment: 0
      m_AllTileFlags: 1073741825
  - first: {x: 16, y: -2, z: 0}
    second:
      serializedVersion: 2
      m_TileIndex: 60
      m_TileSpriteIndex: 60
      m_TileMatrixIndex: 0
      m_TileColorIndex: 0
      m_TileObjectToInstantiateIndex: 65535
      dummyAlignment: 0
      m_AllTileFlags: 1073741825
  - first: {x: 17, y: -2, z: 0}
    second:
      serializedVersion: 2
      m_TileIndex: 61
      m_TileSpriteIndex: 61
      m_TileMatrixIndex: 0
      m_TileColorIndex: 0
      m_TileObjectToInstantiateIndex: 65535
      dummyAlignment: 0
      m_AllTileFlags: 1073741825
  - first: {x: 18, y: -2, z: 0}
    second:
      serializedVersion: 2
      m_TileIndex: 62
      m_TileSpriteIndex: 62
      m_TileMatrixIndex: 0
      m_TileColorIndex: 0
      m_TileObjectToInstantiateIndex: 65535
      dummyAlignment: 0
      m_AllTileFlags: 1073741825
  - first: {x: 19, y: -2, z: 0}
    second:
      serializedVersion: 2
      m_TileIndex: 63
      m_TileSpriteIndex: 63
      m_TileMatrixIndex: 0
      m_TileColorIndex: 0
      m_TileObjectToInstantiateIndex: 65535
      dummyAlignment: 0
      m_AllTileFlags: 1073741825
  - first: {x: 20, y: -2, z: 0}
    second:
      serializedVersion: 2
      m_TileIndex: 64
      m_TileSpriteIndex: 64
      m_TileMatrixIndex: 0
      m_TileColorIndex: 0
      m_TileObjectToInstantiateIndex: 65535
      dummyAlignment: 0
      m_AllTileFlags: 1073741825
  - first: {x: -1, y: 0, z: 0}
    second:
      serializedVersion: 2
      m_TileIndex: 34
      m_TileSpriteIndex: 34
      m_TileMatrixIndex: 0
      m_TileColorIndex: 0
      m_TileObjectToInstantiateIndex: 65535
      dummyAlignment: 0
      m_AllTileFlags: 1073741825
  - first: {x: 0, y: 0, z: 0}
    second:
      serializedVersion: 2
      m_TileIndex: 35
      m_TileSpriteIndex: 35
      m_TileMatrixIndex: 0
      m_TileColorIndex: 0
      m_TileObjectToInstantiateIndex: 65535
      dummyAlignment: 0
      m_AllTileFlags: 1073741825
  - first: {x: 1, y: 0, z: 0}
    second:
      serializedVersion: 2
      m_TileIndex: 36
      m_TileSpriteIndex: 36
      m_TileMatrixIndex: 0
      m_TileColorIndex: 0
      m_TileObjectToInstantiateIndex: 65535
      dummyAlignment: 0
      m_AllTileFlags: 1073741825
  - first: {x: 5, y: 0, z: 0}
    second:
      serializedVersion: 2
      m_TileIndex: 37
      m_TileSpriteIndex: 37
      m_TileMatrixIndex: 0
      m_TileColorIndex: 0
      m_TileObjectToInstantiateIndex: 65535
      dummyAlignment: 0
      m_AllTileFlags: 1073741825
  - first: {x: 6, y: 0, z: 0}
    second:
      serializedVersion: 2
      m_TileIndex: 38
      m_TileSpriteIndex: 38
      m_TileMatrixIndex: 0
      m_TileColorIndex: 0
      m_TileObjectToInstantiateIndex: 65535
      dummyAlignment: 0
      m_AllTileFlags: 1073741825
  - first: {x: 7, y: 0, z: 0}
    second:
      serializedVersion: 2
      m_TileIndex: 39
      m_TileSpriteIndex: 39
      m_TileMatrixIndex: 0
      m_TileColorIndex: 0
      m_TileObjectToInstantiateIndex: 65535
      dummyAlignment: 0
      m_AllTileFlags: 1073741825
  - first: {x: 12, y: 0, z: 0}
    second:
      serializedVersion: 2
      m_TileIndex: 40
      m_TileSpriteIndex: 40
      m_TileMatrixIndex: 0
      m_TileColorIndex: 0
      m_TileObjectToInstantiateIndex: 65535
      dummyAlignment: 0
      m_AllTileFlags: 1073741825
  - first: {x: 13, y: 0, z: 0}
    second:
      serializedVersion: 2
      m_TileIndex: 41
      m_TileSpriteIndex: 41
      m_TileMatrixIndex: 0
      m_TileColorIndex: 0
      m_TileObjectToInstantiateIndex: 65535
      dummyAlignment: 0
      m_AllTileFlags: 1073741825
  - first: {x: 14, y: 0, z: 0}
    second:
      serializedVersion: 2
      m_TileIndex: 42
      m_TileSpriteIndex: 42
      m_TileMatrixIndex: 0
      m_TileColorIndex: 0
      m_TileObjectToInstantiateIndex: 65535
      dummyAlignment: 0
      m_AllTileFlags: 1073741825
  - first: {x: 16, y: 0, z: 0}
    second:
      serializedVersion: 2
      m_TileIndex: 43
      m_TileSpriteIndex: 43
      m_TileMatrixIndex: 0
      m_TileColorIndex: 0
      m_TileObjectToInstantiateIndex: 65535
      dummyAlignment: 0
      m_AllTileFlags: 1073741825
  - first: {x: 17, y: 0, z: 0}
    second:
      serializedVersion: 2
      m_TileIndex: 44
      m_TileSpriteIndex: 44
      m_TileMatrixIndex: 0
      m_TileColorIndex: 0
      m_TileObjectToInstantiateIndex: 65535
      dummyAlignment: 0
      m_AllTileFlags: 1073741825
  - first: {x: 18, y: 0, z: 0}
    second:
      serializedVersion: 2
      m_TileIndex: 45
      m_TileSpriteIndex: 45
      m_TileMatrixIndex: 0
      m_TileColorIndex: 0
      m_TileObjectToInstantiateIndex: 65535
      dummyAlignment: 0
      m_AllTileFlags: 1073741825
  - first: {x: -1, y: 1, z: 0}
    second:
      serializedVersion: 2
      m_TileIndex: 17
      m_TileSpriteIndex: 17
      m_TileMatrixIndex: 0
      m_TileColorIndex: 0
      m_TileObjectToInstantiateIndex: 65535
      dummyAlignment: 0
      m_AllTileFlags: 1073741825
  - first: {x: 0, y: 1, z: 0}
    second:
      serializedVersion: 2
      m_TileIndex: 18
      m_TileSpriteIndex: 18
      m_TileMatrixIndex: 0
      m_TileColorIndex: 0
      m_TileObjectToInstantiateIndex: 65535
      dummyAlignment: 0
      m_AllTileFlags: 1073741825
  - first: {x: 1, y: 1, z: 0}
    second:
      serializedVersion: 2
      m_TileIndex: 19
      m_TileSpriteIndex: 19
      m_TileMatrixIndex: 0
      m_TileColorIndex: 0
      m_TileObjectToInstantiateIndex: 65535
      dummyAlignment: 0
      m_AllTileFlags: 1073741825
  - first: {x: 2, y: 1, z: 0}
    second:
      serializedVersion: 2
      m_TileIndex: 20
      m_TileSpriteIndex: 20
      m_TileMatrixIndex: 0
      m_TileColorIndex: 0
      m_TileObjectToInstantiateIndex: 65535
      dummyAlignment: 0
      m_AllTileFlags: 1073741825
  - first: {x: 3, y: 1, z: 0}
    second:
      serializedVersion: 2
      m_TileIndex: 21
      m_TileSpriteIndex: 21
      m_TileMatrixIndex: 0
      m_TileColorIndex: 0
      m_TileObjectToInstantiateIndex: 65535
      dummyAlignment: 0
      m_AllTileFlags: 1073741825
  - first: {x: 5, y: 1, z: 0}
    second:
      serializedVersion: 2
      m_TileIndex: 22
      m_TileSpriteIndex: 22
      m_TileMatrixIndex: 0
      m_TileColorIndex: 0
      m_TileObjectToInstantiateIndex: 65535
      dummyAlignment: 0
      m_AllTileFlags: 1073741825
  - first: {x: 6, y: 1, z: 0}
    second:
      serializedVersion: 2
      m_TileIndex: 23
      m_TileSpriteIndex: 23
      m_TileMatrixIndex: 0
      m_TileColorIndex: 0
      m_TileObjectToInstantiateIndex: 65535
      dummyAlignment: 0
      m_AllTileFlags: 1073741825
  - first: {x: 7, y: 1, z: 0}
    second:
      serializedVersion: 2
      m_TileIndex: 24
      m_TileSpriteIndex: 24
      m_TileMatrixIndex: 0
      m_TileColorIndex: 0
      m_TileObjectToInstantiateIndex: 65535
      dummyAlignment: 0
      m_AllTileFlags: 1073741825
  - first: {x: 8, y: 1, z: 0}
    second:
      serializedVersion: 2
      m_TileIndex: 25
      m_TileSpriteIndex: 25
      m_TileMatrixIndex: 0
      m_TileColorIndex: 0
      m_TileObjectToInstantiateIndex: 65535
      dummyAlignment: 0
      m_AllTileFlags: 1073741825
  - first: {x: 9, y: 1, z: 0}
    second:
      serializedVersion: 2
      m_TileIndex: 26
      m_TileSpriteIndex: 26
      m_TileMatrixIndex: 0
      m_TileColorIndex: 0
      m_TileObjectToInstantiateIndex: 65535
      dummyAlignment: 0
      m_AllTileFlags: 1073741825
  - first: {x: 11, y: 1, z: 0}
    second:
      serializedVersion: 2
      m_TileIndex: 27
      m_TileSpriteIndex: 27
      m_TileMatrixIndex: 0
      m_TileColorIndex: 0
      m_TileObjectToInstantiateIndex: 65535
      dummyAlignment: 0
      m_AllTileFlags: 1073741825
  - first: {x: 12, y: 1, z: 0}
    second:
      serializedVersion: 2
      m_TileIndex: 28
      m_TileSpriteIndex: 28
      m_TileMatrixIndex: 0
      m_TileColorIndex: 0
      m_TileObjectToInstantiateIndex: 65535
      dummyAlignment: 0
      m_AllTileFlags: 1073741825
  - first: {x: 13, y: 1, z: 0}
    second:
      serializedVersion: 2
      m_TileIndex: 29
      m_TileSpriteIndex: 29
      m_TileMatrixIndex: 0
      m_TileColorIndex: 0
      m_TileObjectToInstantiateIndex: 65535
      dummyAlignment: 0
      m_AllTileFlags: 1073741825
  - first: {x: 14, y: 1, z: 0}
    second:
      serializedVersion: 2
      m_TileIndex: 30
      m_TileSpriteIndex: 30
      m_TileMatrixIndex: 0
      m_TileColorIndex: 0
      m_TileObjectToInstantiateIndex: 65535
      dummyAlignment: 0
      m_AllTileFlags: 1073741825
  - first: {x: 16, y: 1, z: 0}
    second:
      serializedVersion: 2
      m_TileIndex: 31
      m_TileSpriteIndex: 31
      m_TileMatrixIndex: 0
      m_TileColorIndex: 0
      m_TileObjectToInstantiateIndex: 65535
      dummyAlignment: 0
      m_AllTileFlags: 1073741825
  - first: {x: 17, y: 1, z: 0}
    second:
      serializedVersion: 2
      m_TileIndex: 32
      m_TileSpriteIndex: 32
      m_TileMatrixIndex: 0
      m_TileColorIndex: 0
      m_TileObjectToInstantiateIndex: 65535
      dummyAlignment: 0
      m_AllTileFlags: 1073741825
  - first: {x: 18, y: 1, z: 0}
    second:
      serializedVersion: 2
      m_TileIndex: 33
      m_TileSpriteIndex: 33
      m_TileMatrixIndex: 0
      m_TileColorIndex: 0
      m_TileObjectToInstantiateIndex: 65535
      dummyAlignment: 0
      m_AllTileFlags: 1073741825
  - first: {x: -1, y: 2, z: 0}
    second:
      serializedVersion: 2
      m_TileIndex: 0
      m_TileSpriteIndex: 0
      m_TileMatrixIndex: 0
      m_TileColorIndex: 0
      m_TileObjectToInstantiateIndex: 65535
      dummyAlignment: 0
      m_AllTileFlags: 1073741825
  - first: {x: 0, y: 2, z: 0}
    second:
      serializedVersion: 2
      m_TileIndex: 1
      m_TileSpriteIndex: 1
      m_TileMatrixIndex: 0
      m_TileColorIndex: 0
      m_TileObjectToInstantiateIndex: 65535
      dummyAlignment: 0
      m_AllTileFlags: 1073741825
  - first: {x: 1, y: 2, z: 0}
    second:
      serializedVersion: 2
      m_TileIndex: 2
      m_TileSpriteIndex: 2
      m_TileMatrixIndex: 0
      m_TileColorIndex: 0
      m_TileObjectToInstantiateIndex: 65535
      dummyAlignment: 0
      m_AllTileFlags: 1073741825
  - first: {x: 2, y: 2, z: 0}
    second:
      serializedVersion: 2
      m_TileIndex: 3
      m_TileSpriteIndex: 3
      m_TileMatrixIndex: 0
      m_TileColorIndex: 0
      m_TileObjectToInstantiateIndex: 65535
      dummyAlignment: 0
      m_AllTileFlags: 1073741825
  - first: {x: 3, y: 2, z: 0}
    second:
      serializedVersion: 2
      m_TileIndex: 4
      m_TileSpriteIndex: 4
      m_TileMatrixIndex: 0
      m_TileColorIndex: 0
      m_TileObjectToInstantiateIndex: 65535
      dummyAlignment: 0
      m_AllTileFlags: 1073741825
  - first: {x: 5, y: 2, z: 0}
    second:
      serializedVersion: 2
      m_TileIndex: 5
      m_TileSpriteIndex: 5
      m_TileMatrixIndex: 0
      m_TileColorIndex: 0
      m_TileObjectToInstantiateIndex: 65535
      dummyAlignment: 0
      m_AllTileFlags: 1073741825
  - first: {x: 6, y: 2, z: 0}
    second:
      serializedVersion: 2
      m_TileIndex: 6
      m_TileSpriteIndex: 6
      m_TileMatrixIndex: 0
      m_TileColorIndex: 0
      m_TileObjectToInstantiateIndex: 65535
      dummyAlignment: 0
      m_AllTileFlags: 1073741825
  - first: {x: 7, y: 2, z: 0}
    second:
      serializedVersion: 2
      m_TileIndex: 7
      m_TileSpriteIndex: 7
      m_TileMatrixIndex: 0
      m_TileColorIndex: 0
      m_TileObjectToInstantiateIndex: 65535
      dummyAlignment: 0
      m_AllTileFlags: 1073741825
  - first: {x: 8, y: 2, z: 0}
    second:
      serializedVersion: 2
      m_TileIndex: 8
      m_TileSpriteIndex: 8
      m_TileMatrixIndex: 0
      m_TileColorIndex: 0
      m_TileObjectToInstantiateIndex: 65535
      dummyAlignment: 0
      m_AllTileFlags: 1073741825
  - first: {x: 9, y: 2, z: 0}
    second:
      serializedVersion: 2
      m_TileIndex: 9
      m_TileSpriteIndex: 9
      m_TileMatrixIndex: 0
      m_TileColorIndex: 0
      m_TileObjectToInstantiateIndex: 65535
      dummyAlignment: 0
      m_AllTileFlags: 1073741825
  - first: {x: 11, y: 2, z: 0}
    second:
      serializedVersion: 2
      m_TileIndex: 10
      m_TileSpriteIndex: 10
      m_TileMatrixIndex: 0
      m_TileColorIndex: 0
      m_TileObjectToInstantiateIndex: 65535
      dummyAlignment: 0
      m_AllTileFlags: 1073741825
  - first: {x: 12, y: 2, z: 0}
    second:
      serializedVersion: 2
      m_TileIndex: 11
      m_TileSpriteIndex: 11
      m_TileMatrixIndex: 0
      m_TileColorIndex: 0
      m_TileObjectToInstantiateIndex: 65535
      dummyAlignment: 0
      m_AllTileFlags: 1073741825
  - first: {x: 13, y: 2, z: 0}
    second:
      serializedVersion: 2
      m_TileIndex: 12
      m_TileSpriteIndex: 12
      m_TileMatrixIndex: 0
      m_TileColorIndex: 0
      m_TileObjectToInstantiateIndex: 65535
      dummyAlignment: 0
      m_AllTileFlags: 1073741825
  - first: {x: 14, y: 2, z: 0}
    second:
      serializedVersion: 2
      m_TileIndex: 13
      m_TileSpriteIndex: 13
      m_TileMatrixIndex: 0
      m_TileColorIndex: 0
      m_TileObjectToInstantiateIndex: 65535
      dummyAlignment: 0
      m_AllTileFlags: 1073741825
  - first: {x: 16, y: 2, z: 0}
    second:
      serializedVersion: 2
      m_TileIndex: 14
      m_TileSpriteIndex: 14
      m_TileMatrixIndex: 0
      m_TileColorIndex: 0
      m_TileObjectToInstantiateIndex: 65535
      dummyAlignment: 0
      m_AllTileFlags: 1073741825
  - first: {x: 17, y: 2, z: 0}
    second:
      serializedVersion: 2
      m_TileIndex: 15
      m_TileSpriteIndex: 15
      m_TileMatrixIndex: 0
      m_TileColorIndex: 0
      m_TileObjectToInstantiateIndex: 65535
      dummyAlignment: 0
      m_AllTileFlags: 1073741825
  - first: {x: 18, y: 2, z: 0}
    second:
      serializedVersion: 2
      m_TileIndex: 16
      m_TileSpriteIndex: 16
      m_TileMatrixIndex: 0
      m_TileColorIndex: 0
      m_TileObjectToInstantiateIndex: 65535
      dummyAlignment: 0
      m_AllTileFlags: 1073741825
  - first: {x: 7, y: 5, z: 0}
    second:
      serializedVersion: 2
      m_TileIndex: 172
      m_TileSpriteIndex: 172
      m_TileMatrixIndex: 0
      m_TileColorIndex: 0
      m_TileObjectToInstantiateIndex: 65535
      dummyAlignment: 0
      m_AllTileFlags: 1073741825
  - first: {x: 8, y: 5, z: 0}
    second:
      serializedVersion: 2
      m_TileIndex: 173
      m_TileSpriteIndex: 173
      m_TileMatrixIndex: 0
      m_TileColorIndex: 0
      m_TileObjectToInstantiateIndex: 65535
      dummyAlignment: 0
      m_AllTileFlags: 1073741825
  - first: {x: 9, y: 5, z: 0}
    second:
      serializedVersion: 2
      m_TileIndex: 174
      m_TileSpriteIndex: 174
      m_TileMatrixIndex: 0
      m_TileColorIndex: 0
      m_TileObjectToInstantiateIndex: 65535
      dummyAlignment: 0
      m_AllTileFlags: 1073741825
  - first: {x: 10, y: 5, z: 0}
    second:
      serializedVersion: 2
      m_TileIndex: 175
      m_TileSpriteIndex: 175
      m_TileMatrixIndex: 0
      m_TileColorIndex: 0
      m_TileObjectToInstantiateIndex: 65535
      dummyAlignment: 0
      m_AllTileFlags: 1073741825
  - first: {x: 0, y: 6, z: 0}
    second:
      serializedVersion: 2
      m_TileIndex: 156
      m_TileSpriteIndex: 156
      m_TileMatrixIndex: 0
      m_TileColorIndex: 0
      m_TileObjectToInstantiateIndex: 65535
      dummyAlignment: 0
      m_AllTileFlags: 1073741825
  - first: {x: 1, y: 6, z: 0}
    second:
      serializedVersion: 2
      m_TileIndex: 157
      m_TileSpriteIndex: 157
      m_TileMatrixIndex: 0
      m_TileColorIndex: 0
      m_TileObjectToInstantiateIndex: 65535
      dummyAlignment: 0
      m_AllTileFlags: 1073741825
  - first: {x: 2, y: 6, z: 0}
    second:
      serializedVersion: 2
      m_TileIndex: 158
      m_TileSpriteIndex: 158
      m_TileMatrixIndex: 0
      m_TileColorIndex: 0
      m_TileObjectToInstantiateIndex: 65535
      dummyAlignment: 0
      m_AllTileFlags: 1073741825
  - first: {x: 3, y: 6, z: 0}
    second:
      serializedVersion: 2
      m_TileIndex: 159
      m_TileSpriteIndex: 159
      m_TileMatrixIndex: 0
      m_TileColorIndex: 0
      m_TileObjectToInstantiateIndex: 65535
      dummyAlignment: 0
      m_AllTileFlags: 1073741825
  - first: {x: 7, y: 6, z: 0}
    second:
      serializedVersion: 2
      m_TileIndex: 168
      m_TileSpriteIndex: 168
      m_TileMatrixIndex: 0
      m_TileColorIndex: 0
      m_TileObjectToInstantiateIndex: 65535
      dummyAlignment: 0
      m_AllTileFlags: 1073741825
  - first: {x: 8, y: 6, z: 0}
    second:
      serializedVersion: 2
      m_TileIndex: 169
      m_TileSpriteIndex: 169
      m_TileMatrixIndex: 0
      m_TileColorIndex: 0
      m_TileObjectToInstantiateIndex: 65535
      dummyAlignment: 0
      m_AllTileFlags: 1073741825
  - first: {x: 9, y: 6, z: 0}
    second:
      serializedVersion: 2
      m_TileIndex: 170
      m_TileSpriteIndex: 170
      m_TileMatrixIndex: 0
      m_TileColorIndex: 0
      m_TileObjectToInstantiateIndex: 65535
      dummyAlignment: 0
      m_AllTileFlags: 1073741825
  - first: {x: 10, y: 6, z: 0}
    second:
      serializedVersion: 2
      m_TileIndex: 171
      m_TileSpriteIndex: 171
      m_TileMatrixIndex: 0
      m_TileColorIndex: 0
      m_TileObjectToInstantiateIndex: 65535
      dummyAlignment: 0
      m_AllTileFlags: 1073741825
  - first: {x: 0, y: 7, z: 0}
    second:
      serializedVersion: 2
      m_TileIndex: 152
      m_TileSpriteIndex: 152
      m_TileMatrixIndex: 0
      m_TileColorIndex: 0
      m_TileObjectToInstantiateIndex: 65535
      dummyAlignment: 0
      m_AllTileFlags: 1073741825
  - first: {x: 1, y: 7, z: 0}
    second:
      serializedVersion: 2
      m_TileIndex: 153
      m_TileSpriteIndex: 153
      m_TileMatrixIndex: 0
      m_TileColorIndex: 0
      m_TileObjectToInstantiateIndex: 65535
      dummyAlignment: 0
      m_AllTileFlags: 1073741825
  - first: {x: 2, y: 7, z: 0}
    second:
      serializedVersion: 2
      m_TileIndex: 154
      m_TileSpriteIndex: 154
      m_TileMatrixIndex: 0
      m_TileColorIndex: 0
      m_TileObjectToInstantiateIndex: 65535
      dummyAlignment: 0
      m_AllTileFlags: 1073741825
  - first: {x: 3, y: 7, z: 0}
    second:
      serializedVersion: 2
      m_TileIndex: 155
      m_TileSpriteIndex: 155
      m_TileMatrixIndex: 0
      m_TileColorIndex: 0
      m_TileObjectToInstantiateIndex: 65535
      dummyAlignment: 0
      m_AllTileFlags: 1073741825
  - first: {x: 7, y: 7, z: 0}
    second:
      serializedVersion: 2
      m_TileIndex: 164
      m_TileSpriteIndex: 164
      m_TileMatrixIndex: 0
      m_TileColorIndex: 0
      m_TileObjectToInstantiateIndex: 65535
      dummyAlignment: 0
      m_AllTileFlags: 1073741825
  - first: {x: 8, y: 7, z: 0}
    second:
      serializedVersion: 2
      m_TileIndex: 165
      m_TileSpriteIndex: 165
      m_TileMatrixIndex: 0
      m_TileColorIndex: 0
      m_TileObjectToInstantiateIndex: 65535
      dummyAlignment: 0
      m_AllTileFlags: 1073741825
  - first: {x: 9, y: 7, z: 0}
    second:
      serializedVersion: 2
      m_TileIndex: 166
      m_TileSpriteIndex: 166
      m_TileMatrixIndex: 0
      m_TileColorIndex: 0
      m_TileObjectToInstantiateIndex: 65535
      dummyAlignment: 0
      m_AllTileFlags: 1073741825
  - first: {x: 10, y: 7, z: 0}
    second:
      serializedVersion: 2
      m_TileIndex: 167
      m_TileSpriteIndex: 167
      m_TileMatrixIndex: 0
      m_TileColorIndex: 0
      m_TileObjectToInstantiateIndex: 65535
      dummyAlignment: 0
      m_AllTileFlags: 1073741825
  - first: {x: 0, y: 8, z: 0}
    second:
      serializedVersion: 2
      m_TileIndex: 148
      m_TileSpriteIndex: 148
      m_TileMatrixIndex: 0
      m_TileColorIndex: 0
      m_TileObjectToInstantiateIndex: 65535
      dummyAlignment: 0
      m_AllTileFlags: 1073741825
  - first: {x: 1, y: 8, z: 0}
    second:
      serializedVersion: 2
      m_TileIndex: 149
      m_TileSpriteIndex: 149
      m_TileMatrixIndex: 0
      m_TileColorIndex: 0
      m_TileObjectToInstantiateIndex: 65535
      dummyAlignment: 0
      m_AllTileFlags: 1073741825
  - first: {x: 2, y: 8, z: 0}
    second:
      serializedVersion: 2
      m_TileIndex: 150
      m_TileSpriteIndex: 150
      m_TileMatrixIndex: 0
      m_TileColorIndex: 0
      m_TileObjectToInstantiateIndex: 65535
      dummyAlignment: 0
      m_AllTileFlags: 1073741825
  - first: {x: 3, y: 8, z: 0}
    second:
      serializedVersion: 2
      m_TileIndex: 151
      m_TileSpriteIndex: 151
      m_TileMatrixIndex: 0
      m_TileColorIndex: 0
      m_TileObjectToInstantiateIndex: 65535
      dummyAlignment: 0
      m_AllTileFlags: 1073741825
  - first: {x: 7, y: 8, z: 0}
    second:
      serializedVersion: 2
      m_TileIndex: 160
      m_TileSpriteIndex: 160
      m_TileMatrixIndex: 0
      m_TileColorIndex: 0
      m_TileObjectToInstantiateIndex: 65535
      dummyAlignment: 0
      m_AllTileFlags: 1073741825
  - first: {x: 8, y: 8, z: 0}
    second:
      serializedVersion: 2
      m_TileIndex: 161
      m_TileSpriteIndex: 161
      m_TileMatrixIndex: 0
      m_TileColorIndex: 0
      m_TileObjectToInstantiateIndex: 65535
      dummyAlignment: 0
      m_AllTileFlags: 1073741825
  - first: {x: 9, y: 8, z: 0}
    second:
      serializedVersion: 2
      m_TileIndex: 162
      m_TileSpriteIndex: 162
      m_TileMatrixIndex: 0
      m_TileColorIndex: 0
      m_TileObjectToInstantiateIndex: 65535
      dummyAlignment: 0
      m_AllTileFlags: 1073741825
  - first: {x: 10, y: 8, z: 0}
    second:
      serializedVersion: 2
      m_TileIndex: 163
      m_TileSpriteIndex: 163
      m_TileMatrixIndex: 0
      m_TileColorIndex: 0
      m_TileObjectToInstantiateIndex: 65535
      dummyAlignment: 0
      m_AllTileFlags: 1073741825
  - first: {x: 0, y: 9, z: 0}
    second:
      serializedVersion: 2
      m_TileIndex: 144
      m_TileSpriteIndex: 144
      m_TileMatrixIndex: 0
      m_TileColorIndex: 0
      m_TileObjectToInstantiateIndex: 65535
      dummyAlignment: 0
      m_AllTileFlags: 1073741825
  - first: {x: 1, y: 9, z: 0}
    second:
      serializedVersion: 2
      m_TileIndex: 145
      m_TileSpriteIndex: 145
      m_TileMatrixIndex: 0
      m_TileColorIndex: 0
      m_TileObjectToInstantiateIndex: 65535
      dummyAlignment: 0
      m_AllTileFlags: 1073741825
  - first: {x: 2, y: 9, z: 0}
    second:
      serializedVersion: 2
      m_TileIndex: 146
      m_TileSpriteIndex: 146
      m_TileMatrixIndex: 0
      m_TileColorIndex: 0
      m_TileObjectToInstantiateIndex: 65535
      dummyAlignment: 0
      m_AllTileFlags: 1073741825
  - first: {x: 3, y: 9, z: 0}
    second:
      serializedVersion: 2
      m_TileIndex: 147
      m_TileSpriteIndex: 147
      m_TileMatrixIndex: 0
      m_TileColorIndex: 0
      m_TileObjectToInstantiateIndex: 65535
      dummyAlignment: 0
      m_AllTileFlags: 1073741825
  m_AnimatedTiles: {}
  m_TileAssetArray:
  - m_RefCount: 1
    m_Data: {fileID: 11400000, guid: 166c02fc26b7c40b399f29624e67fd48, type: 2}
  - m_RefCount: 1
    m_Data: {fileID: 11400000, guid: 1bf13b8fe2fe142a1a21b42e829b4167, type: 2}
  - m_RefCount: 1
    m_Data: {fileID: 11400000, guid: 555b725b379c648c4b9d8baa4cde0cc4, type: 2}
  - m_RefCount: 1
    m_Data: {fileID: 11400000, guid: a104139ac4477443e840e215ed590ac9, type: 2}
  - m_RefCount: 1
    m_Data: {fileID: 11400000, guid: 72ec6ac9311b24b07a81fc8c34f12d06, type: 2}
  - m_RefCount: 1
    m_Data: {fileID: 11400000, guid: b8bede6e837674c34925e037c9c35695, type: 2}
  - m_RefCount: 1
    m_Data: {fileID: 11400000, guid: d5b8bfe59b99342c7b9ffd7b7b627bd6, type: 2}
  - m_RefCount: 1
    m_Data: {fileID: 11400000, guid: 6c91ede4a499c4b70b0c909ada8893f6, type: 2}
  - m_RefCount: 1
    m_Data: {fileID: 11400000, guid: 3f83ebb788ee54836b83d7c8efd2e649, type: 2}
  - m_RefCount: 1
    m_Data: {fileID: 11400000, guid: ee7de612fa3a444f6a9b13468599c828, type: 2}
  - m_RefCount: 1
    m_Data: {fileID: 11400000, guid: e4c05383b032d4103a17796be0dbb524, type: 2}
  - m_RefCount: 1
    m_Data: {fileID: 11400000, guid: 5a1ba9eb7674d4a68834fc7fce120e7e, type: 2}
  - m_RefCount: 1
    m_Data: {fileID: 11400000, guid: 5c2c37dce63b04aef8320c9ad578904a, type: 2}
  - m_RefCount: 1
    m_Data: {fileID: 11400000, guid: 41230666c3655450ab246d9180da3674, type: 2}
  - m_RefCount: 1
    m_Data: {fileID: 11400000, guid: a0e2b826b6979404f95210f2a9e25272, type: 2}
  - m_RefCount: 1
    m_Data: {fileID: 11400000, guid: 12a430c43b64843c593fd56f3279bca6, type: 2}
  - m_RefCount: 1
    m_Data: {fileID: 11400000, guid: c456be56a973e4cab920f1e393acb301, type: 2}
  - m_RefCount: 1
    m_Data: {fileID: 11400000, guid: 4e174355d06ba4434a8bc28557b71a19, type: 2}
  - m_RefCount: 1
    m_Data: {fileID: 11400000, guid: 4a62227120ced42659f84fead9cde146, type: 2}
  - m_RefCount: 1
    m_Data: {fileID: 11400000, guid: 26a6e10b91f744d5f9086036d3e7e5ca, type: 2}
  - m_RefCount: 1
    m_Data: {fileID: 11400000, guid: d07cb7cc5a0464f31a22d3b3d694f3fd, type: 2}
  - m_RefCount: 1
    m_Data: {fileID: 11400000, guid: a0662ab34693444d4882bd4d79cc1f5f, type: 2}
  - m_RefCount: 1
    m_Data: {fileID: 11400000, guid: d8d9e70c789f840ba8e425b18700c6aa, type: 2}
  - m_RefCount: 1
    m_Data: {fileID: 11400000, guid: 6f3e73f464707493996747682a88ed3d, type: 2}
  - m_RefCount: 1
    m_Data: {fileID: 11400000, guid: 463e4715482424055b688114ba92f11d, type: 2}
  - m_RefCount: 1
    m_Data: {fileID: 11400000, guid: 29b681685f3df456ea47f5239f6a191b, type: 2}
  - m_RefCount: 1
    m_Data: {fileID: 11400000, guid: 38b450d6c222a4be8a650a99a02a0759, type: 2}
  - m_RefCount: 1
    m_Data: {fileID: 11400000, guid: 6c406333e76834f148cb9e2cc561a9f2, type: 2}
  - m_RefCount: 1
    m_Data: {fileID: 11400000, guid: f8325ab178952484b955a0d18eb95bbb, type: 2}
  - m_RefCount: 1
    m_Data: {fileID: 11400000, guid: 91ee32b816f7d41e9b4a39e818f7aa9f, type: 2}
  - m_RefCount: 1
    m_Data: {fileID: 11400000, guid: 5dde21ac7c47a463d9018124e3bc3b3e, type: 2}
  - m_RefCount: 1
    m_Data: {fileID: 11400000, guid: 418cc05d7e3704d2ba1fca4903be74ba, type: 2}
  - m_RefCount: 1
    m_Data: {fileID: 11400000, guid: 3a8c744aae5f8469f8e67487bf198d38, type: 2}
  - m_RefCount: 1
    m_Data: {fileID: 11400000, guid: 0f440ae894fdf46acb638215eed0213e, type: 2}
  - m_RefCount: 1
    m_Data: {fileID: 11400000, guid: 6dc49c9e70a9741fda46286d1dcbfc0e, type: 2}
  - m_RefCount: 1
    m_Data: {fileID: 11400000, guid: a8470c050f11b4adcb955388fa59f736, type: 2}
  - m_RefCount: 1
    m_Data: {fileID: 11400000, guid: c446b2bba271842fa82292d1a1b3797e, type: 2}
  - m_RefCount: 1
    m_Data: {fileID: 11400000, guid: d1273cb7363934b74aa21af63b151360, type: 2}
  - m_RefCount: 1
    m_Data: {fileID: 11400000, guid: a21eb30ccb22f476c87d44aa996b1ca4, type: 2}
  - m_RefCount: 1
    m_Data: {fileID: 11400000, guid: 4f58b0344cb8f47e2968773a1ac5e150, type: 2}
  - m_RefCount: 1
    m_Data: {fileID: 11400000, guid: 0b8218496c87845b6a268a3a43174ab0, type: 2}
  - m_RefCount: 1
    m_Data: {fileID: 11400000, guid: 3fee1d54d68f04181a1270e57b583d70, type: 2}
  - m_RefCount: 1
    m_Data: {fileID: 11400000, guid: b82beb3a483604e6980370a7a1fa1633, type: 2}
  - m_RefCount: 1
    m_Data: {fileID: 11400000, guid: 3ab0eae465829443a94dcd0d5dc1cb19, type: 2}
  - m_RefCount: 1
    m_Data: {fileID: 11400000, guid: 658792a5b0e6f4c1e9a8e04704ab77a3, type: 2}
  - m_RefCount: 1
    m_Data: {fileID: 11400000, guid: ab0f5bcaee82944798987d5af71a0d5a, type: 2}
  - m_RefCount: 1
    m_Data: {fileID: 11400000, guid: b6d865ec280cb4144b550d02ddaaab9d, type: 2}
  - m_RefCount: 1
    m_Data: {fileID: 11400000, guid: 378e82e87fe004d10a2242465ad5fdbb, type: 2}
  - m_RefCount: 1
    m_Data: {fileID: 11400000, guid: 30c993aa676c744a9b943100fa3f9992, type: 2}
  - m_RefCount: 1
    m_Data: {fileID: 11400000, guid: 87fb6bbca89d44c78a6c0b10b74c344b, type: 2}
  - m_RefCount: 1
    m_Data: {fileID: 11400000, guid: 09601c8d555504b74a011d65be3f7603, type: 2}
  - m_RefCount: 1
    m_Data: {fileID: 11400000, guid: fb46e413deac04e519fef1ccd2300169, type: 2}
  - m_RefCount: 1
    m_Data: {fileID: 11400000, guid: a0b611a15e57c47b0b3e8580f7f3c2ec, type: 2}
  - m_RefCount: 1
    m_Data: {fileID: 11400000, guid: 18247814062f64d28b655903998702bb, type: 2}
  - m_RefCount: 1
    m_Data: {fileID: 11400000, guid: 7e486307a77204673a9ef5bc44cee627, type: 2}
  - m_RefCount: 1
    m_Data: {fileID: 11400000, guid: 548edf21505f04a57b01d5304e2ad69a, type: 2}
  - m_RefCount: 1
    m_Data: {fileID: 11400000, guid: 5de3c5245abaf44e9af9544cb8bd0f93, type: 2}
  - m_RefCount: 1
    m_Data: {fileID: 11400000, guid: fc57bfe5ae6b64fe6ad4310037157bef, type: 2}
  - m_RefCount: 1
    m_Data: {fileID: 11400000, guid: b64ca1b48f41544bab0ae6bf220b6761, type: 2}
  - m_RefCount: 1
    m_Data: {fileID: 11400000, guid: 4f11950b53d474f91a34926d07daa95b, type: 2}
  - m_RefCount: 1
    m_Data: {fileID: 11400000, guid: 86e40568e044746da9dd6cbed0b056bf, type: 2}
  - m_RefCount: 1
    m_Data: {fileID: 11400000, guid: 0d09617875a9b4a3d8c95131d889f7d0, type: 2}
  - m_RefCount: 1
    m_Data: {fileID: 11400000, guid: 72db1f2bb2dc34f3bb09f960c5ac151b, type: 2}
  - m_RefCount: 1
    m_Data: {fileID: 11400000, guid: 060e268ac2cdd4be4b195bea14bb0d12, type: 2}
  - m_RefCount: 1
    m_Data: {fileID: 11400000, guid: a0a9da654d0a44b7dbcf4cd26586f5f3, type: 2}
  - m_RefCount: 1
    m_Data: {fileID: 11400000, guid: 69d11e172aeee4d529249ace43244b23, type: 2}
  - m_RefCount: 1
    m_Data: {fileID: 11400000, guid: a4dbd53568cbd4fda91b60ae66dbfa01, type: 2}
  - m_RefCount: 1
    m_Data: {fileID: 11400000, guid: d0ee4acc9bbcf4dc49d2c54d8a2b8ef8, type: 2}
  - m_RefCount: 1
    m_Data: {fileID: 11400000, guid: 27b1b9c4632b14f999fc80e68f8f5654, type: 2}
  - m_RefCount: 1
    m_Data: {fileID: 11400000, guid: 22466362774ec4b04868187a86a43534, type: 2}
  - m_RefCount: 1
    m_Data: {fileID: 11400000, guid: bc8eb7034c7744cdaa24516f00e5aeeb, type: 2}
  - m_RefCount: 1
    m_Data: {fileID: 11400000, guid: 13250940dd43c47efbb00ba95c08f9c5, type: 2}
  - m_RefCount: 1
    m_Data: {fileID: 11400000, guid: ead75ca284bf14050b3a68660a216300, type: 2}
  - m_RefCount: 1
    m_Data: {fileID: 11400000, guid: 449727aa20dda42bea4dfbdac6946f65, type: 2}
  - m_RefCount: 1
    m_Data: {fileID: 11400000, guid: 4b9d5038b3d6748acb9fac6dc2b660bc, type: 2}
  - m_RefCount: 1
    m_Data: {fileID: 11400000, guid: 7f84aa2230102433f81d128f204499b6, type: 2}
  - m_RefCount: 1
    m_Data: {fileID: 11400000, guid: 9bc66309b8cc84c9fb87cdd705525b66, type: 2}
  - m_RefCount: 1
    m_Data: {fileID: 11400000, guid: 37e0ff2d0b76c4248bcb81196511f9e9, type: 2}
  - m_RefCount: 1
    m_Data: {fileID: 11400000, guid: 2758adfae29334438b1ce0880ddd68c5, type: 2}
  - m_RefCount: 1
    m_Data: {fileID: 11400000, guid: 8c75f11a75d2e4c69a5b003bab8db47d, type: 2}
  - m_RefCount: 1
    m_Data: {fileID: 11400000, guid: 6dddfb80d982e4fed8a16ce94d90e4d9, type: 2}
  - m_RefCount: 1
    m_Data: {fileID: 11400000, guid: d14f8e75470204cf58abb1446ca45eda, type: 2}
  - m_RefCount: 1
    m_Data: {fileID: 11400000, guid: 2ccbdaf845a21491782ff51c879bb240, type: 2}
  - m_RefCount: 1
    m_Data: {fileID: 11400000, guid: 4157523d3925e4c349bdf23b1df32484, type: 2}
  - m_RefCount: 1
    m_Data: {fileID: 11400000, guid: a6ff868bf40314534b5e97885d8e49a1, type: 2}
  - m_RefCount: 1
    m_Data: {fileID: 11400000, guid: bbdb48a590cac4452a00236945cd0288, type: 2}
  - m_RefCount: 1
    m_Data: {fileID: 11400000, guid: 724cec1dc9c2a4c4590ca96850b5dbba, type: 2}
  - m_RefCount: 1
    m_Data: {fileID: 11400000, guid: 7b61318b900d64f00916a38e30adc102, type: 2}
  - m_RefCount: 1
    m_Data: {fileID: 11400000, guid: 4d1998b3f04b649ac93c3c79b8a7bb9e, type: 2}
  - m_RefCount: 1
    m_Data: {fileID: 11400000, guid: 2ac1d6058e15e41438c45e8687d0563e, type: 2}
  - m_RefCount: 1
    m_Data: {fileID: 11400000, guid: f109b20d3f471452a9414ecdce1fdb4b, type: 2}
  - m_RefCount: 1
    m_Data: {fileID: 11400000, guid: 2a7d553e844d545488870887d66cb697, type: 2}
  - m_RefCount: 1
    m_Data: {fileID: 11400000, guid: 24aefd85efd744b9583a993d1af59927, type: 2}
  - m_RefCount: 1
    m_Data: {fileID: 11400000, guid: 0c1d2316d971448a78ef4e3cb0b585fc, type: 2}
  - m_RefCount: 1
    m_Data: {fileID: 11400000, guid: a07841fff8b7f4623886d0f1145548bb, type: 2}
  - m_RefCount: 1
    m_Data: {fileID: 11400000, guid: f7758dad4fea74ebbba9ddfd8a9e9cae, type: 2}
  - m_RefCount: 1
    m_Data: {fileID: 11400000, guid: 5d9fe3e1d715e460294774efb861b346, type: 2}
  - m_RefCount: 1
    m_Data: {fileID: 11400000, guid: c20892370dc3c47559644c5685dc5186, type: 2}
  - m_RefCount: 1
    m_Data: {fileID: 11400000, guid: 009de0fdcee5145c38192132e28373f9, type: 2}
  - m_RefCount: 1
    m_Data: {fileID: 11400000, guid: 33dbcffefab254faba410d1d0b4accf9, type: 2}
  - m_RefCount: 1
    m_Data: {fileID: 11400000, guid: b4bb9f7933436467182de3ab277c5389, type: 2}
  - m_RefCount: 1
    m_Data: {fileID: 11400000, guid: 1ad1d8ff607f9441e91971fda6826f94, type: 2}
  - m_RefCount: 1
    m_Data: {fileID: 11400000, guid: 146240cde3f68426181fde081600b478, type: 2}
  - m_RefCount: 1
    m_Data: {fileID: 11400000, guid: bacf3fcdcced44f5bac5634317e91df5, type: 2}
  - m_RefCount: 1
    m_Data: {fileID: 11400000, guid: 058d1e1cfefae46b9a82c9d1fefc0add, type: 2}
  - m_RefCount: 1
    m_Data: {fileID: 11400000, guid: e95062fbc9b734c8882dd1c73b549dd6, type: 2}
  - m_RefCount: 1
    m_Data: {fileID: 11400000, guid: ec4450e9aa87a4725a4a29213533a47a, type: 2}
  - m_RefCount: 1
    m_Data: {fileID: 11400000, guid: 85f0cc2205ec04e628e49e1d8fabfb45, type: 2}
  - m_RefCount: 1
    m_Data: {fileID: 11400000, guid: b2ce38703cc9f40a8a21b710944d0850, type: 2}
  - m_RefCount: 1
    m_Data: {fileID: 11400000, guid: be7cef0394265410cbdbb4f7d29d40ca, type: 2}
  - m_RefCount: 1
    m_Data: {fileID: 11400000, guid: 560a71374d96d489ea62b9d394ca1c70, type: 2}
  - m_RefCount: 1
    m_Data: {fileID: 11400000, guid: 556799ab787ad487f93d8679e3c33dd2, type: 2}
  - m_RefCount: 1
    m_Data: {fileID: 11400000, guid: 42362ed096435476d962aae7e51d5f78, type: 2}
  - m_RefCount: 1
    m_Data: {fileID: 11400000, guid: 1d8ac1b7e274e47cea9b78fdb7308b2b, type: 2}
  - m_RefCount: 1
    m_Data: {fileID: 11400000, guid: 02fbd6fb05b3d462ea56851a55f96ef3, type: 2}
  - m_RefCount: 1
    m_Data: {fileID: 11400000, guid: 74a721c8960d1466bbcb57151f20303e, type: 2}
  - m_RefCount: 1
    m_Data: {fileID: 11400000, guid: 95f1af549c1804d14a28a1f5d71b052e, type: 2}
  - m_RefCount: 1
    m_Data: {fileID: 11400000, guid: 2d3768bcf75c14e898c0e9bdcb903fb9, type: 2}
  - m_RefCount: 1
    m_Data: {fileID: 11400000, guid: 82c69d3d00bb4443681bb3c8cae36359, type: 2}
  - m_RefCount: 1
    m_Data: {fileID: 11400000, guid: 589646183650646e599ab0c4f9c74360, type: 2}
  - m_RefCount: 1
    m_Data: {fileID: 11400000, guid: bde8feae85b5741a7a8abbbd6e893a3e, type: 2}
  - m_RefCount: 1
    m_Data: {fileID: 11400000, guid: 2a567525d8ea14013bde251f15e901b3, type: 2}
  - m_RefCount: 1
    m_Data: {fileID: 11400000, guid: 13830f8af105340a79bc60dc1c759830, type: 2}
  - m_RefCount: 1
    m_Data: {fileID: 11400000, guid: efa28354520554364a3f5b26be354aec, type: 2}
  - m_RefCount: 1
    m_Data: {fileID: 11400000, guid: 3eebf8f94c61a4b4f9d3fd7b197bd64c, type: 2}
  - m_RefCount: 1
    m_Data: {fileID: 11400000, guid: 97f71599c40d648d7bf434ca6441a40c, type: 2}
  - m_RefCount: 1
    m_Data: {fileID: 11400000, guid: be4acffc46b024f78aade8c69f5724f5, type: 2}
  - m_RefCount: 1
    m_Data: {fileID: 11400000, guid: 86b00de721e0b4f77aee8c026158fec8, type: 2}
  - m_RefCount: 1
    m_Data: {fileID: 11400000, guid: 26122555fd4a34f65ade563d83e00c1b, type: 2}
  - m_RefCount: 1
    m_Data: {fileID: 11400000, guid: 28480dd5bcb1844adb0290890c8dcd27, type: 2}
  - m_RefCount: 1
    m_Data: {fileID: 11400000, guid: 5753e37c270b6449eb222bc7e1e5ec9b, type: 2}
  - m_RefCount: 1
    m_Data: {fileID: 11400000, guid: 1234bf8a58efb44e499c0f207c89e9cc, type: 2}
  - m_RefCount: 1
    m_Data: {fileID: 11400000, guid: 67975771711a440bcbf081c0451a58cd, type: 2}
  - m_RefCount: 1
    m_Data: {fileID: 11400000, guid: b446c1163d5204ed282309deec243094, type: 2}
  - m_RefCount: 1
    m_Data: {fileID: 11400000, guid: 647605435a611486898129483eef581b, type: 2}
  - m_RefCount: 1
    m_Data: {fileID: 11400000, guid: eaec9244102ca423390d5403f8f9dc06, type: 2}
  - m_RefCount: 1
    m_Data: {fileID: 11400000, guid: 40d2ec9b50e4b4ca197d71d1361daf3d, type: 2}
  - m_RefCount: 1
    m_Data: {fileID: 11400000, guid: 869a97066f340465eb8863ec13ec991d, type: 2}
  - m_RefCount: 1
    m_Data: {fileID: 11400000, guid: 14ccd485f183746dfb03b359f554aac3, type: 2}
  - m_RefCount: 1
    m_Data: {fileID: 11400000, guid: 1bd614dc089584f37b3eab1e7f33e4fa, type: 2}
  - m_RefCount: 1
    m_Data: {fileID: 11400000, guid: df8c8ad86a4ef4bef8ced65d05b0b695, type: 2}
  - m_RefCount: 1
    m_Data: {fileID: 11400000, guid: 12082f2987ef9442f926ac1de5bdb4fe, type: 2}
  - m_RefCount: 1
    m_Data: {fileID: 11400000, guid: a8b67d5df28b34550925d2f3b8842543, type: 2}
  - m_RefCount: 1
    m_Data: {fileID: 11400000, guid: 020ba65558213467da8813454e362db1, type: 2}
  - m_RefCount: 1
    m_Data: {fileID: 11400000, guid: 58a2056d2ed95487d8a7321f964a7d4c, type: 2}
  - m_RefCount: 1
    m_Data: {fileID: 11400000, guid: 934d27bd9b4df4a15aea06ed6c6c0386, type: 2}
  - m_RefCount: 1
    m_Data: {fileID: 11400000, guid: fc7d8c15b156644aabc149e284b6c554, type: 2}
  - m_RefCount: 1
    m_Data: {fileID: 11400000, guid: 21371d5bc7eea495386d5ccbfdf0a34c, type: 2}
  - m_RefCount: 1
    m_Data: {fileID: 11400000, guid: 80342dc276a7f4a5183fc0f73c4e6a22, type: 2}
  - m_RefCount: 1
    m_Data: {fileID: 11400000, guid: b48a676b1c49b413ba35e89fce66082a, type: 2}
  - m_RefCount: 1
    m_Data: {fileID: 11400000, guid: d4ca248baf3ec4dbca67c4362e76c390, type: 2}
  - m_RefCount: 1
    m_Data: {fileID: 11400000, guid: 619623285a4704d88b3eede9e8a05ab9, type: 2}
  - m_RefCount: 1
    m_Data: {fileID: 11400000, guid: b41246e2384cd406baa50cedb9154459, type: 2}
  - m_RefCount: 1
    m_Data: {fileID: 11400000, guid: e46185a9dd1ff40e583aa26a02bc4b64, type: 2}
  - m_RefCount: 1
    m_Data: {fileID: 11400000, guid: 8167f17bacec64bf3848ffd66f5044ea, type: 2}
  - m_RefCount: 1
    m_Data: {fileID: 11400000, guid: 96e08b57e85c1441ea6572a0d7ee534c, type: 2}
  - m_RefCount: 1
    m_Data: {fileID: 11400000, guid: 420b75716102e4e558720ff4c7da8f3b, type: 2}
  - m_RefCount: 1
    m_Data: {fileID: 11400000, guid: c9fd525f978094c9cb222ea4397ca134, type: 2}
  - m_RefCount: 1
    m_Data: {fileID: 11400000, guid: e678e70c5e509471eace150b2a96aeae, type: 2}
  - m_RefCount: 1
    m_Data: {fileID: 11400000, guid: 3b922f1af265a449bbfa2f118fc7c320, type: 2}
  - m_RefCount: 1
    m_Data: {fileID: 11400000, guid: aff5e1724253343acba395a754c02436, type: 2}
  - m_RefCount: 1
    m_Data: {fileID: 11400000, guid: d1d411d57ae594811b7733b9ec0d09e0, type: 2}
  - m_RefCount: 1
    m_Data: {fileID: 11400000, guid: 0139a1747917345a4bb273cb3977ec77, type: 2}
  - m_RefCount: 1
    m_Data: {fileID: 11400000, guid: 859f1aa04601449e3a8b387086e95ed7, type: 2}
  - m_RefCount: 1
    m_Data: {fileID: 11400000, guid: 7f7dda0f4b6d14567bd53682d798411c, type: 2}
  - m_RefCount: 1
    m_Data: {fileID: 11400000, guid: 03d36ec61c3234d55ae9517df082c9d4, type: 2}
  - m_RefCount: 1
    m_Data: {fileID: 11400000, guid: 5f9feb26a4ca54543845e4154ac1213f, type: 2}
  - m_RefCount: 1
    m_Data: {fileID: 11400000, guid: 9d8025f4bc42347a89eb0b164794cfdf, type: 2}
  - m_RefCount: 1
    m_Data: {fileID: 11400000, guid: db928416bc7ed4d539de41904dfdd270, type: 2}
  - m_RefCount: 1
    m_Data: {fileID: 11400000, guid: 35c82681efd8d47c38bef893ba16058c, type: 2}
  - m_RefCount: 1
    m_Data: {fileID: 11400000, guid: c97f99b69de584815b2625d039fb5c62, type: 2}
  - m_RefCount: 1
    m_Data: {fileID: 11400000, guid: 556b5f9260c514386a6844d166191ec7, type: 2}
  - m_RefCount: 1
    m_Data: {fileID: 11400000, guid: 15bb0d83a8eef4ff1bca5c0686ba477b, type: 2}
  - m_RefCount: 1
    m_Data: {fileID: 11400000, guid: 01842d1bac7c244f19441182c08ddfbf, type: 2}
  - m_RefCount: 1
    m_Data: {fileID: 11400000, guid: 95d37c1d0b41444c7a6aeab165f4dc9d, type: 2}
  - m_RefCount: 1
    m_Data: {fileID: 11400000, guid: 1b6ac4355fd08477c81270d54c67ecb7, type: 2}
  m_TileSpriteArray:
  - m_RefCount: 1
    m_Data: {fileID: -5742017059485446288, guid: 413986c4a668c374d8de72a47621b531, type: 3}
  - m_RefCount: 1
    m_Data: {fileID: 7720078550713291429, guid: 413986c4a668c374d8de72a47621b531, type: 3}
  - m_RefCount: 1
    m_Data: {fileID: 3324791916300770321, guid: 413986c4a668c374d8de72a47621b531, type: 3}
  - m_RefCount: 1
    m_Data: {fileID: -2670375232149954509, guid: 413986c4a668c374d8de72a47621b531, type: 3}
  - m_RefCount: 1
    m_Data: {fileID: 2620999850736420264, guid: 413986c4a668c374d8de72a47621b531, type: 3}
  - m_RefCount: 1
    m_Data: {fileID: 3960460497668127647, guid: 413986c4a668c374d8de72a47621b531, type: 3}
  - m_RefCount: 1
    m_Data: {fileID: -2855676163392102926, guid: 413986c4a668c374d8de72a47621b531, type: 3}
  - m_RefCount: 1
    m_Data: {fileID: 1959242234642493429, guid: 413986c4a668c374d8de72a47621b531, type: 3}
  - m_RefCount: 1
    m_Data: {fileID: -5467818790455678805, guid: 413986c4a668c374d8de72a47621b531, type: 3}
  - m_RefCount: 1
    m_Data: {fileID: -3772788190681173310, guid: 413986c4a668c374d8de72a47621b531, type: 3}
  - m_RefCount: 1
    m_Data: {fileID: -7347219255181986903, guid: 413986c4a668c374d8de72a47621b531, type: 3}
  - m_RefCount: 1
    m_Data: {fileID: 83881842087414782, guid: 413986c4a668c374d8de72a47621b531, type: 3}
  - m_RefCount: 1
    m_Data: {fileID: -7419515092152464958, guid: 413986c4a668c374d8de72a47621b531, type: 3}
  - m_RefCount: 1
    m_Data: {fileID: 7943464550610457251, guid: 413986c4a668c374d8de72a47621b531, type: 3}
  - m_RefCount: 1
    m_Data: {fileID: -4540417752536426878, guid: 413986c4a668c374d8de72a47621b531, type: 3}
  - m_RefCount: 1
    m_Data: {fileID: 1677969170204734917, guid: 413986c4a668c374d8de72a47621b531, type: 3}
  - m_RefCount: 1
    m_Data: {fileID: 4766802168184475957, guid: 413986c4a668c374d8de72a47621b531, type: 3}
  - m_RefCount: 1
    m_Data: {fileID: -5544034647522700988, guid: 413986c4a668c374d8de72a47621b531, type: 3}
  - m_RefCount: 1
    m_Data: {fileID: 4933862967234440694, guid: 413986c4a668c374d8de72a47621b531, type: 3}
  - m_RefCount: 1
    m_Data: {fileID: 8314089492805882382, guid: 413986c4a668c374d8de72a47621b531, type: 3}
  - m_RefCount: 1
    m_Data: {fileID: 4342185354254719579, guid: 413986c4a668c374d8de72a47621b531, type: 3}
  - m_RefCount: 1
    m_Data: {fileID: -7938635362662432394, guid: 413986c4a668c374d8de72a47621b531, type: 3}
  - m_RefCount: 1
    m_Data: {fileID: -2031364208924450991, guid: 413986c4a668c374d8de72a47621b531, type: 3}
  - m_RefCount: 1
    m_Data: {fileID: 7924768050718739784, guid: 413986c4a668c374d8de72a47621b531, type: 3}
  - m_RefCount: 1
    m_Data: {fileID: 4414993753915607275, guid: 413986c4a668c374d8de72a47621b531, type: 3}
  - m_RefCount: 1
    m_Data: {fileID: -8585889677064027493, guid: 413986c4a668c374d8de72a47621b531, type: 3}
  - m_RefCount: 1
    m_Data: {fileID: -5453880865855771486, guid: 413986c4a668c374d8de72a47621b531, type: 3}
  - m_RefCount: 1
    m_Data: {fileID: -7756284310654259397, guid: 413986c4a668c374d8de72a47621b531, type: 3}
  - m_RefCount: 1
    m_Data: {fileID: -7819541114205624934, guid: 413986c4a668c374d8de72a47621b531, type: 3}
  - m_RefCount: 1
    m_Data: {fileID: -3918962127394069910, guid: 413986c4a668c374d8de72a47621b531, type: 3}
  - m_RefCount: 1
    m_Data: {fileID: 9103387047762358048, guid: 413986c4a668c374d8de72a47621b531, type: 3}
  - m_RefCount: 1
    m_Data: {fileID: -2406789826180114690, guid: 413986c4a668c374d8de72a47621b531, type: 3}
  - m_RefCount: 1
    m_Data: {fileID: 2383590771012211271, guid: 413986c4a668c374d8de72a47621b531, type: 3}
  - m_RefCount: 1
    m_Data: {fileID: -1252025376992931709, guid: 413986c4a668c374d8de72a47621b531, type: 3}
  - m_RefCount: 1
    m_Data: {fileID: -7091288699856980373, guid: 413986c4a668c374d8de72a47621b531, type: 3}
  - m_RefCount: 1
    m_Data: {fileID: 3428821397120980769, guid: 413986c4a668c374d8de72a47621b531, type: 3}
  - m_RefCount: 1
    m_Data: {fileID: 7670700962780772113, guid: 413986c4a668c374d8de72a47621b531, type: 3}
  - m_RefCount: 1
    m_Data: {fileID: -3912100822870045097, guid: 413986c4a668c374d8de72a47621b531, type: 3}
  - m_RefCount: 1
    m_Data: {fileID: -1686594289151781696, guid: 413986c4a668c374d8de72a47621b531, type: 3}
  - m_RefCount: 1
    m_Data: {fileID: 1267343245607864193, guid: 413986c4a668c374d8de72a47621b531, type: 3}
  - m_RefCount: 1
    m_Data: {fileID: 5380743038275514072, guid: 413986c4a668c374d8de72a47621b531, type: 3}
  - m_RefCount: 1
    m_Data: {fileID: -6931175314313071712, guid: 413986c4a668c374d8de72a47621b531, type: 3}
  - m_RefCount: 1
    m_Data: {fileID: 5333725910036218396, guid: 413986c4a668c374d8de72a47621b531, type: 3}
  - m_RefCount: 1
    m_Data: {fileID: 7342804147089739580, guid: 413986c4a668c374d8de72a47621b531, type: 3}
  - m_RefCount: 1
    m_Data: {fileID: -6235293824458081885, guid: 413986c4a668c374d8de72a47621b531, type: 3}
  - m_RefCount: 1
    m_Data: {fileID: -857840176383129086, guid: 413986c4a668c374d8de72a47621b531, type: 3}
  - m_RefCount: 1
    m_Data: {fileID: 7282933932642684246, guid: 413986c4a668c374d8de72a47621b531, type: 3}
  - m_RefCount: 1
    m_Data: {fileID: -7152485000540787396, guid: 413986c4a668c374d8de72a47621b531, type: 3}
  - m_RefCount: 1
    m_Data: {fileID: 6310486622897893646, guid: 413986c4a668c374d8de72a47621b531, type: 3}
  - m_RefCount: 1
    m_Data: {fileID: 674029489870886860, guid: 413986c4a668c374d8de72a47621b531, type: 3}
  - m_RefCount: 1
    m_Data: {fileID: 8304085970770240517, guid: 413986c4a668c374d8de72a47621b531, type: 3}
  - m_RefCount: 1
    m_Data: {fileID: 5819871258034587923, guid: 413986c4a668c374d8de72a47621b531, type: 3}
  - m_RefCount: 1
    m_Data: {fileID: 2259727219438315944, guid: 413986c4a668c374d8de72a47621b531, type: 3}
  - m_RefCount: 1
    m_Data: {fileID: -876249401986460383, guid: 413986c4a668c374d8de72a47621b531, type: 3}
  - m_RefCount: 1
    m_Data: {fileID: -4022694726900212569, guid: 413986c4a668c374d8de72a47621b531, type: 3}
  - m_RefCount: 1
    m_Data: {fileID: -4702101747586448131, guid: 413986c4a668c374d8de72a47621b531, type: 3}
  - m_RefCount: 1
    m_Data: {fileID: -8074405414792180583, guid: 413986c4a668c374d8de72a47621b531, type: 3}
  - m_RefCount: 1
    m_Data: {fileID: 3886711452162515544, guid: 413986c4a668c374d8de72a47621b531, type: 3}
  - m_RefCount: 1
    m_Data: {fileID: 3721206807199574096, guid: 413986c4a668c374d8de72a47621b531, type: 3}
  - m_RefCount: 1
    m_Data: {fileID: -197904581926626051, guid: 413986c4a668c374d8de72a47621b531, type: 3}
  - m_RefCount: 1
    m_Data: {fileID: 5988275101769560615, guid: 413986c4a668c374d8de72a47621b531, type: 3}
  - m_RefCount: 1
    m_Data: {fileID: 5917618115707030172, guid: 413986c4a668c374d8de72a47621b531, type: 3}
  - m_RefCount: 1
    m_Data: {fileID: 7017764536788123571, guid: 413986c4a668c374d8de72a47621b531, type: 3}
  - m_RefCount: 1
    m_Data: {fileID: 3765567624289607195, guid: 413986c4a668c374d8de72a47621b531, type: 3}
  - m_RefCount: 1
    m_Data: {fileID: -6161409863061258775, guid: 413986c4a668c374d8de72a47621b531, type: 3}
  - m_RefCount: 1
    m_Data: {fileID: -851399136955410399, guid: 413986c4a668c374d8de72a47621b531, type: 3}
  - m_RefCount: 1
    m_Data: {fileID: 1834175920236650305, guid: 413986c4a668c374d8de72a47621b531, type: 3}
  - m_RefCount: 1
    m_Data: {fileID: -544440302786801571, guid: 413986c4a668c374d8de72a47621b531, type: 3}
  - m_RefCount: 1
    m_Data: {fileID: -4401375221719629345, guid: 413986c4a668c374d8de72a47621b531, type: 3}
  - m_RefCount: 1
    m_Data: {fileID: -4207731177672959930, guid: 413986c4a668c374d8de72a47621b531, type: 3}
  - m_RefCount: 1
    m_Data: {fileID: 5358996851675591209, guid: 413986c4a668c374d8de72a47621b531, type: 3}
  - m_RefCount: 1
    m_Data: {fileID: 7113087853046313844, guid: 413986c4a668c374d8de72a47621b531, type: 3}
  - m_RefCount: 1
    m_Data: {fileID: 1711449304027514408, guid: 413986c4a668c374d8de72a47621b531, type: 3}
  - m_RefCount: 1
    m_Data: {fileID: -4619009428585204688, guid: 413986c4a668c374d8de72a47621b531, type: 3}
  - m_RefCount: 1
    m_Data: {fileID: 595150188318235410, guid: 413986c4a668c374d8de72a47621b531, type: 3}
  - m_RefCount: 1
    m_Data: {fileID: 3954039318004772946, guid: 413986c4a668c374d8de72a47621b531, type: 3}
  - m_RefCount: 1
    m_Data: {fileID: -8901095482721848204, guid: 413986c4a668c374d8de72a47621b531, type: 3}
  - m_RefCount: 1
    m_Data: {fileID: 5063591721430881570, guid: 413986c4a668c374d8de72a47621b531, type: 3}
  - m_RefCount: 1
    m_Data: {fileID: 8659721161941031216, guid: 413986c4a668c374d8de72a47621b531, type: 3}
  - m_RefCount: 1
    m_Data: {fileID: 2769885362572891434, guid: 413986c4a668c374d8de72a47621b531, type: 3}
  - m_RefCount: 1
    m_Data: {fileID: -9065017710439255229, guid: 413986c4a668c374d8de72a47621b531, type: 3}
  - m_RefCount: 1
    m_Data: {fileID: 7747253799600147050, guid: 413986c4a668c374d8de72a47621b531, type: 3}
  - m_RefCount: 1
    m_Data: {fileID: 9051841252037681709, guid: 413986c4a668c374d8de72a47621b531, type: 3}
  - m_RefCount: 1
    m_Data: {fileID: -216309243283673249, guid: 413986c4a668c374d8de72a47621b531, type: 3}
  - m_RefCount: 1
    m_Data: {fileID: 955897709614569303, guid: 413986c4a668c374d8de72a47621b531, type: 3}
  - m_RefCount: 1
    m_Data: {fileID: 379118598977146330, guid: 413986c4a668c374d8de72a47621b531, type: 3}
  - m_RefCount: 1
    m_Data: {fileID: -6056646125807519841, guid: 413986c4a668c374d8de72a47621b531, type: 3}
  - m_RefCount: 1
    m_Data: {fileID: 8130661448699519640, guid: 413986c4a668c374d8de72a47621b531, type: 3}
  - m_RefCount: 1
    m_Data: {fileID: -4824777122844340131, guid: 413986c4a668c374d8de72a47621b531, type: 3}
  - m_RefCount: 1
    m_Data: {fileID: 2005641195705921619, guid: 413986c4a668c374d8de72a47621b531, type: 3}
  - m_RefCount: 1
    m_Data: {fileID: -2227136368224041058, guid: 413986c4a668c374d8de72a47621b531, type: 3}
  - m_RefCount: 1
    m_Data: {fileID: 8963997702019249409, guid: 413986c4a668c374d8de72a47621b531, type: 3}
  - m_RefCount: 1
    m_Data: {fileID: 6587895710433944682, guid: 413986c4a668c374d8de72a47621b531, type: 3}
  - m_RefCount: 1
    m_Data: {fileID: -4040718264380956911, guid: 413986c4a668c374d8de72a47621b531, type: 3}
  - m_RefCount: 1
    m_Data: {fileID: -4316653179192870565, guid: 413986c4a668c374d8de72a47621b531, type: 3}
  - m_RefCount: 1
    m_Data: {fileID: 1613411653756472227, guid: 413986c4a668c374d8de72a47621b531, type: 3}
  - m_RefCount: 1
    m_Data: {fileID: 8318345695037926077, guid: 413986c4a668c374d8de72a47621b531, type: 3}
  - m_RefCount: 1
    m_Data: {fileID: 7107416650768322614, guid: 413986c4a668c374d8de72a47621b531, type: 3}
  - m_RefCount: 1
    m_Data: {fileID: -776293348372248107, guid: 413986c4a668c374d8de72a47621b531, type: 3}
  - m_RefCount: 1
    m_Data: {fileID: -8850079673222899432, guid: 413986c4a668c374d8de72a47621b531, type: 3}
  - m_RefCount: 1
    m_Data: {fileID: -5100419831703567162, guid: 413986c4a668c374d8de72a47621b531, type: 3}
  - m_RefCount: 1
    m_Data: {fileID: 514895290864754165, guid: 413986c4a668c374d8de72a47621b531, type: 3}
  - m_RefCount: 1
    m_Data: {fileID: 2833608464155355427, guid: 413986c4a668c374d8de72a47621b531, type: 3}
  - m_RefCount: 1
    m_Data: {fileID: 1287146972786412800, guid: 413986c4a668c374d8de72a47621b531, type: 3}
  - m_RefCount: 1
    m_Data: {fileID: -8420527839168626216, guid: 413986c4a668c374d8de72a47621b531, type: 3}
  - m_RefCount: 1
    m_Data: {fileID: 4948354447469879099, guid: 413986c4a668c374d8de72a47621b531, type: 3}
  - m_RefCount: 1
    m_Data: {fileID: 2785571907306095668, guid: 413986c4a668c374d8de72a47621b531, type: 3}
  - m_RefCount: 1
    m_Data: {fileID: -4294584060702284362, guid: 413986c4a668c374d8de72a47621b531, type: 3}
  - m_RefCount: 1
    m_Data: {fileID: -2897716413605597506, guid: 413986c4a668c374d8de72a47621b531, type: 3}
  - m_RefCount: 1
    m_Data: {fileID: 1330532494177048340, guid: 413986c4a668c374d8de72a47621b531, type: 3}
  - m_RefCount: 1
    m_Data: {fileID: -7815516086045219616, guid: 413986c4a668c374d8de72a47621b531, type: 3}
  - m_RefCount: 1
    m_Data: {fileID: -4462408743235345577, guid: 413986c4a668c374d8de72a47621b531, type: 3}
  - m_RefCount: 1
    m_Data: {fileID: 1910218594547068940, guid: 413986c4a668c374d8de72a47621b531, type: 3}
  - m_RefCount: 1
    m_Data: {fileID: -2265308626296800771, guid: 413986c4a668c374d8de72a47621b531, type: 3}
  - m_RefCount: 1
    m_Data: {fileID: 5422333806994135822, guid: 413986c4a668c374d8de72a47621b531, type: 3}
  - m_RefCount: 1
    m_Data: {fileID: -4878470788300455140, guid: 413986c4a668c374d8de72a47621b531, type: 3}
  - m_RefCount: 1
    m_Data: {fileID: 5442813237172822479, guid: 413986c4a668c374d8de72a47621b531, type: 3}
  - m_RefCount: 1
    m_Data: {fileID: 3495556680152921117, guid: 413986c4a668c374d8de72a47621b531, type: 3}
  - m_RefCount: 1
    m_Data: {fileID: -5511486276467369047, guid: 413986c4a668c374d8de72a47621b531, type: 3}
  - m_RefCount: 1
    m_Data: {fileID: 3654808065026979187, guid: 413986c4a668c374d8de72a47621b531, type: 3}
  - m_RefCount: 1
    m_Data: {fileID: 4899949796102767662, guid: 413986c4a668c374d8de72a47621b531, type: 3}
  - m_RefCount: 1
    m_Data: {fileID: 5193653947383685551, guid: 413986c4a668c374d8de72a47621b531, type: 3}
  - m_RefCount: 1
    m_Data: {fileID: 5248698104578315062, guid: 413986c4a668c374d8de72a47621b531, type: 3}
  - m_RefCount: 1
    m_Data: {fileID: 5708369111087845987, guid: 413986c4a668c374d8de72a47621b531, type: 3}
  - m_RefCount: 1
    m_Data: {fileID: -8401712479665244719, guid: 413986c4a668c374d8de72a47621b531, type: 3}
  - m_RefCount: 1
    m_Data: {fileID: -745915193665043134, guid: 413986c4a668c374d8de72a47621b531, type: 3}
  - m_RefCount: 1
    m_Data: {fileID: 1744841203378904724, guid: 413986c4a668c374d8de72a47621b531, type: 3}
  - m_RefCount: 1
    m_Data: {fileID: -7816987373840243850, guid: 413986c4a668c374d8de72a47621b531, type: 3}
  - m_RefCount: 1
    m_Data: {fileID: 2228171259211473965, guid: 413986c4a668c374d8de72a47621b531, type: 3}
  - m_RefCount: 1
    m_Data: {fileID: -5637347227728850145, guid: 413986c4a668c374d8de72a47621b531, type: 3}
  - m_RefCount: 1
    m_Data: {fileID: 5696194325149338307, guid: 413986c4a668c374d8de72a47621b531, type: 3}
  - m_RefCount: 1
    m_Data: {fileID: -4710241425538973241, guid: 413986c4a668c374d8de72a47621b531, type: 3}
  - m_RefCount: 1
    m_Data: {fileID: 4536814810120617268, guid: 413986c4a668c374d8de72a47621b531, type: 3}
  - m_RefCount: 1
    m_Data: {fileID: 3347001043687394058, guid: 413986c4a668c374d8de72a47621b531, type: 3}
  - m_RefCount: 1
    m_Data: {fileID: -4048635775301974168, guid: 413986c4a668c374d8de72a47621b531, type: 3}
  - m_RefCount: 1
    m_Data: {fileID: 4260873565604341795, guid: 413986c4a668c374d8de72a47621b531, type: 3}
  - m_RefCount: 1
    m_Data: {fileID: 4366233584354668663, guid: 413986c4a668c374d8de72a47621b531, type: 3}
  - m_RefCount: 1
    m_Data: {fileID: 5985784651301965768, guid: 413986c4a668c374d8de72a47621b531, type: 3}
  - m_RefCount: 1
    m_Data: {fileID: 4950460264073855100, guid: 413986c4a668c374d8de72a47621b531, type: 3}
  - m_RefCount: 1
    m_Data: {fileID: -765327983766239209, guid: 413986c4a668c374d8de72a47621b531, type: 3}
  - m_RefCount: 1
    m_Data: {fileID: 10527438165769109, guid: 413986c4a668c374d8de72a47621b531, type: 3}
  - m_RefCount: 1
    m_Data: {fileID: 4819672022408933630, guid: 413986c4a668c374d8de72a47621b531, type: 3}
  - m_RefCount: 1
    m_Data: {fileID: -743418551772739896, guid: 413986c4a668c374d8de72a47621b531, type: 3}
  - m_RefCount: 1
    m_Data: {fileID: 1607981278531046907, guid: 413986c4a668c374d8de72a47621b531, type: 3}
  - m_RefCount: 1
    m_Data: {fileID: -7381184880430962403, guid: 348c3b734b11d3b4aa5c69e25b7113e6, type: 3}
  - m_RefCount: 1
    m_Data: {fileID: 139881317523503543, guid: 348c3b734b11d3b4aa5c69e25b7113e6, type: 3}
  - m_RefCount: 1
    m_Data: {fileID: -2698069653466453940, guid: 348c3b734b11d3b4aa5c69e25b7113e6, type: 3}
  - m_RefCount: 1
    m_Data: {fileID: -3962920276799938668, guid: 348c3b734b11d3b4aa5c69e25b7113e6, type: 3}
  - m_RefCount: 1
    m_Data: {fileID: 6815019005497079155, guid: 348c3b734b11d3b4aa5c69e25b7113e6, type: 3}
  - m_RefCount: 1
    m_Data: {fileID: 4966520737234555678, guid: 348c3b734b11d3b4aa5c69e25b7113e6, type: 3}
  - m_RefCount: 1
    m_Data: {fileID: -2993699658363159222, guid: 348c3b734b11d3b4aa5c69e25b7113e6, type: 3}
  - m_RefCount: 1
    m_Data: {fileID: -4353293926914191365, guid: 348c3b734b11d3b4aa5c69e25b7113e6, type: 3}
  - m_RefCount: 1
    m_Data: {fileID: 2451925445430609146, guid: 348c3b734b11d3b4aa5c69e25b7113e6, type: 3}
  - m_RefCount: 1
    m_Data: {fileID: 2597259338202843451, guid: 348c3b734b11d3b4aa5c69e25b7113e6, type: 3}
  - m_RefCount: 1
    m_Data: {fileID: -942109970077638612, guid: 348c3b734b11d3b4aa5c69e25b7113e6, type: 3}
  - m_RefCount: 1
    m_Data: {fileID: -845820854023452326, guid: 348c3b734b11d3b4aa5c69e25b7113e6, type: 3}
  - m_RefCount: 1
    m_Data: {fileID: -3702374633614268465, guid: 348c3b734b11d3b4aa5c69e25b7113e6, type: 3}
  - m_RefCount: 1
    m_Data: {fileID: -2576162496561395546, guid: 348c3b734b11d3b4aa5c69e25b7113e6, type: 3}
  - m_RefCount: 1
    m_Data: {fileID: 3903090132030290891, guid: 348c3b734b11d3b4aa5c69e25b7113e6, type: 3}
  - m_RefCount: 1
    m_Data: {fileID: -1070786133750771281, guid: 348c3b734b11d3b4aa5c69e25b7113e6, type: 3}
  - m_RefCount: 1
    m_Data: {fileID: 6358040702757662528, guid: 4d8c75a4d7dd2a0489270e1058d82128, type: 3}
  - m_RefCount: 1
    m_Data: {fileID: 8499740148186698395, guid: 4d8c75a4d7dd2a0489270e1058d82128, type: 3}
  - m_RefCount: 1
    m_Data: {fileID: 7760632299458796581, guid: 4d8c75a4d7dd2a0489270e1058d82128, type: 3}
  - m_RefCount: 1
    m_Data: {fileID: 1630038963292314288, guid: 4d8c75a4d7dd2a0489270e1058d82128, type: 3}
  - m_RefCount: 1
    m_Data: {fileID: -6024824774455971740, guid: 4d8c75a4d7dd2a0489270e1058d82128, type: 3}
  - m_RefCount: 1
    m_Data: {fileID: 4197895970970880004, guid: 4d8c75a4d7dd2a0489270e1058d82128, type: 3}
  - m_RefCount: 1
    m_Data: {fileID: 4974638878984279112, guid: 4d8c75a4d7dd2a0489270e1058d82128, type: 3}
  - m_RefCount: 1
    m_Data: {fileID: 4858434102731612629, guid: 4d8c75a4d7dd2a0489270e1058d82128, type: 3}
  - m_RefCount: 1
    m_Data: {fileID: -8992526483823807413, guid: 4d8c75a4d7dd2a0489270e1058d82128, type: 3}
  - m_RefCount: 1
    m_Data: {fileID: 8261869031131465511, guid: 4d8c75a4d7dd2a0489270e1058d82128, type: 3}
  - m_RefCount: 1
    m_Data: {fileID: -3881899911555437960, guid: 4d8c75a4d7dd2a0489270e1058d82128, type: 3}
  - m_RefCount: 1
    m_Data: {fileID: -2290714072114536595, guid: 4d8c75a4d7dd2a0489270e1058d82128, type: 3}
  - m_RefCount: 1
    m_Data: {fileID: 8607933654237002255, guid: 4d8c75a4d7dd2a0489270e1058d82128, type: 3}
  - m_RefCount: 1
    m_Data: {fileID: 174437710302185212, guid: 4d8c75a4d7dd2a0489270e1058d82128, type: 3}
  - m_RefCount: 1
    m_Data: {fileID: -5062269461246253945, guid: 4d8c75a4d7dd2a0489270e1058d82128, type: 3}
  - m_RefCount: 1
    m_Data: {fileID: -6499406068804103389, guid: 4d8c75a4d7dd2a0489270e1058d82128, type: 3}
  m_TileMatrixArray:
  - m_RefCount: 176
    m_Data:
      e00: 1
      e01: 0
      e02: 0
      e03: 0
      e10: 0
      e11: 1
      e12: 0
      e13: 0
      e20: 0
      e21: 0
      e22: 1
      e23: 0
      e30: 0
      e31: 0
      e32: 0
      e33: 1
  m_TileColorArray:
  - m_RefCount: 176
    m_Data: {r: 1, g: 1, b: 1, a: 1}
  m_TileObjectToInstantiateArray: []
  m_AnimationFrameRate: 1
  m_Color: {r: 1, g: 1, b: 1, a: 1}
  m_Origin: {x: -1, y: -8, z: 0}
  m_Size: {x: 22, y: 18, z: 1}
  m_TileAnchor: {x: 0.5, y: 0.5, z: 0}
  m_TileOrientation: 0
  m_TileOrientationMatrix:
    e00: 1
    e01: 0
    e02: 0
    e03: 0
    e10: 0
    e11: 1
    e12: 0
    e13: 0
    e20: 0
    e21: 0
    e22: 1
    e23: 0
    e30: 0
    e31: 0
    e32: 0
    e33: 1
--- !u!483693784 &6910353377038643
TilemapRenderer:
  m_ObjectHideFlags: 0
  m_CorrespondingSourceObject: {fileID: 0}
  m_PrefabInstance: {fileID: 0}
  m_PrefabAsset: {fileID: 0}
  m_GameObject: {fileID: 4589858324906340659}
  m_Enabled: 1
  m_CastShadows: 0
  m_ReceiveShadows: 0
  m_DynamicOccludee: 0
  m_MotionVectors: 1
  m_LightProbeUsage: 0
  m_ReflectionProbeUsage: 0
  m_RayTracingMode: 0
  m_RayTraceProcedural: 0
  m_RenderingLayerMask: 1
  m_RendererPriority: 0
  m_Materials:
  - {fileID: 10754, guid: 0000000000000000f000000000000000, type: 0}
  m_StaticBatchInfo:
    firstSubMesh: 0
    subMeshCount: 0
  m_StaticBatchRoot: {fileID: 0}
  m_ProbeAnchor: {fileID: 0}
  m_LightProbeVolumeOverride: {fileID: 0}
  m_ScaleInLightmap: 1
  m_ReceiveGI: 1
  m_PreserveUVs: 0
  m_IgnoreNormalsForChartDetection: 0
  m_ImportantGI: 0
  m_StitchLightmapSeams: 1
  m_SelectedEditorRenderState: 0
  m_MinimumChartSize: 4
  m_AutoUVMaxDistance: 0.5
  m_AutoUVMaxAngle: 89
  m_LightmapParameters: {fileID: 0}
  m_SortingLayerID: 0
  m_SortingLayer: 0
  m_SortingOrder: 0
  m_ChunkSize: {x: 32, y: 32, z: 32}
  m_ChunkCullingBounds: {x: 0, y: 0, z: 0}
  m_MaxChunkCount: 16
  m_MaxFrameAge: 16
  m_SortOrder: 0
  m_Mode: 0
  m_DetectChunkCullingBounds: 0
  m_MaskInteraction: 0
--- !u!114 &5934306444322547337
MonoBehaviour:
  m_ObjectHideFlags: 0
  m_CorrespondingSourceObject: {fileID: 0}
  m_PrefabInstance: {fileID: 0}
  m_PrefabAsset: {fileID: 0}
  m_GameObject: {fileID: 0}
  m_Enabled: 1
  m_EditorHideFlags: 0
  m_Script: {fileID: 12395, guid: 0000000000000000e000000000000000, type: 0}
  m_Name: Palette Settings
  m_EditorClassIdentifier: 
  cellSizing: 0
  m_TransparencySortMode: 0
  m_TransparencySortAxis: {x: 0, y: 0, z: 1}
