[api-updater (non-obsolete-error-filter)] 2/12/2022 9:22:16 PM : Starting /Applications/Unity/Hub/Editor/2020.3.27f1/Unity.app/Contents/Tools/ScriptUpdater/APIUpdater.NonObsoleteApiUpdaterDetector.exe
[api-updater (non-obsolete-error-filter)] 
----------------------------------
jit/startup time      : 201.232ms
moved types parse time: 83ms
candidates parse time : 1ms
C# parse time         : 413ms
candidates check time : 76ms
console write time    : 1ms

[api-updater (non-obsolete-error-filter)] 2/12/2022 9:24:33 PM : Starting /Applications/Unity/Hub/Editor/2020.3.27f1/Unity.app/Contents/Tools/ScriptUpdater/APIUpdater.NonObsoleteApiUpdaterDetector.exe
[api-updater (non-obsolete-error-filter)] 
----------------------------------
jit/startup time      : 185.677ms
moved types parse time: 75ms
candidates parse time : 1ms
C# parse time         : 370ms
candidates check time : 48ms
console write time    : 1ms

